,,,,,"Course=Communication skills, IT skills, law and ethics"
,,,,,Question=3&4. Improvements and comments
,,,,,Answers=43
,,,,,K-means/Spectral clusters=6
,,,,,Affinity clusters=7
,,,,,Stemming=no
,,,,,
id,k-means,affp,spectral,mike,text
1,3,5,2,,Improve how the first term stuff is taught. 
2,3,6,2,,"Make sure that labs do not surpass lectures, lecturer ended up teaching what I had already taught myself 1 week earlier in labs for Unix. "
3,6,1,1,2,Ensure all seminar groups are given coursework at the same time. More opportunity to go over coursework. Coursework organisation was poor – often given coursework weeks after other groups and was not made aware of final essay until receiving an email just before the end of term.
4,6,1,2,2,More consistent marking and handout of work between different groups – some groups got work set earlier. 
5,1,7,5,,More transparent marking for writing component. Very small variance in marks for writing segment of module.
6,2,4,2,3,"More support re. Bash scripting, resources were sparse. Make term 1 lectures more engaging – as the content is very dry. "
7,6,1,1,2,"Mike-duplicate:[3] / More help with the bash scripting coursework. Assignments were given out to seminar groups at very different times, perhaps could be set basics in lecture at same time and then given more detail in seminars – fairer."
10,6,2,3,,More guidance with using the terminal. 
11,3,2,3,3,"More help and guidance in term 1, introductory. Maybe revision classes for the class test. "
12,6,5,2,4,Not have the final essay set over Easter when everyone is at home as it's harder to use the library. 
13,5,3,6,1,Less essays. 
14,6,6,2,,Coherence in T2 slides. 
18,4,5,2,1,Mike-duplicate:[4] / Less work! Too many assignments. Essay shouldn't be done so close to exams. Make it a 2nd year module so it counts towards grade.
19,5,3,1,1,More lab sessions. Less coursework. 
20,6,2,2,,Changing it. 
21,3,2,3,4,"The marking requirements of the term 1 Linux guide were not sufficient, lacking detail. Timing of class test was poor, prioritise exam over test."
22,5,3,2,4,"Make essays in term 1, e.g. fact sheet. "
23,5,3,2,4,"Essays at start of term 2, not all at end. "
24,3,5,2,,More information on term 2 lectures – worksheets? 
25,1,7,5,,More clear instructions for scripting coursework. English / writing textbook would be handy. Lots of writing essays and being told how to write them rather than fine details / precision of the English language.
26,2,4,2,,"Do a better job of explaining the term 2 material. More help with adjusting to Linux. Change the referencing style! Harvard is a huge pain to use with LaTeX. The seminars were superb all round, especially in terms 2 and 3. Linux is not enjoyable at all."
27,2,4,2,3,More scripting examples in lecture. 
28,2,4,4,3,More help with bash scripting. 
29,6,6,2,,Better content. More enthusiastic lecturers. 
30,5,3,6,1,Mike-duplicate:[3] / More help on shell scripting. Less essays. 
31,5,3,6,1,Mike-duplicate:[3] / Teach more bash scripting. Less essays. 
32,5,3,6,1,"Less essays, more presentations. "
33,5,3,1,,Less coursework. 
34,5,3,2,,Open-ended topic choice for essays. The ideas behind the module and motivations are good. The implementation is bad – concentrate on more applicable skills – e.g. persuasion tactics.
35,2,4,4,3,More bash script lectures to help with the coursework. 
36,4,5,2,4,No assignments in term 3 other than the essay. 
37,6,1,2,,Better structure the lecture notes in order to be able to learn from them. Listening to the lecturer on a non-CS related topic is painful enough. The seminars locked in consistence and more information could be supplied before the assignment. Close to none beneficial information about critique was provided. The seminars were more fun than useful. 
38,6,3,2,,More activity with government related knowledge. 
39,6,6,2,,"Initial lectures were slightly patronising (explaining “file” and “instill” etc.). Content often dull / context not always clear. Was initially sceptical of essay-writing, but was very useful."
40,2,4,3,,More extra help. 
41,2,4,4,,More bash. 
43,5,3,2,1,"Fewer essays, more posters. "
44,1,7,5,1,Less writing. 
45,5,3,6,,Less advanced scripting. 
47,3,2,3,,"No class test, % to material ratio not justified. Term 1 seemed useless apart from skills in labs. "
48,4,2,3,4,"Moving the class test away from essay, exams, presentation etc. to allow more revision time. "
49,3,2,3,,Clear statement of module aims (term 2) and given a better idea of what form the class test will take. 
50,3,2,3,,The lectures were rather dull and poorly presented. A lot of the information on the class test seems rather irrelevant – it would be easy to lookup if I needed it and I am unlikely to remember it after the test. 
