,,,,Course=Viscos / DM 2013 course data
,,,,Question=54&55. Ohjelmointi
,,,,Answers=95
,,,,K-means/Spectral clusters=9
,,,,Affinity clusters=13
,,,,Stemming=yes

id,k-means,affp,spectral,text
138,3,1,5,"Olen aiemmin ohjelmoinut jonkin verran basicilla ja c++:ssalla sekä hieman enemmän javalla. basic - päässyt unohtumaan aika pitkälti, käytin useita vuosia sitten c++ - peruasiat melko hyvin hallussa java - perusasiat hallussa, javadokumentaatio hyödyntäen pystyy tekemään aika paljon"
114,7,10,5,"Olen tehnyt aikanaan Commodore64:n Basicilla muutaman merkkigrafiikalla höystetyn tekstiseikkailun ja yhden ilotikulla pelattavan Space Invaders -kloonin. Tosin siinä oli vain yksi ökelö, mutta sitäkin hienommat räjähdykset! Niillä pascal-kursseilla tuli lopputyönä tehtyä joitain   huippuhienoa   grafiikkaa sisältäviä räpellyksiä. Omalla koneella (PC) olen yhä palannut Qbasicin pariin ja tehnyt sillä jotain animaatioita ja keskeneräiseksi jääneen roolipelin. Javaa olin juuri rupeamassa harjoittelemaan, kun sain tietää approsta ja jätin opiskelut sitten siihen (siis java-kurssille, en kesken). Basic: hyvin Pascal: hyvin Java: melko huonosti, mutta appron myötä aina vaan paremmin C++ ja Delphi (eli Object Pascal): olen lukenut joitain niillä ohjelmointia käsitteleviä juttuja, mutta en käytännössä osaisi tehdä (juuri) mitään."
107,4,5,8,"Aloitin ohjelmoinnin HTML-kielen opettelulla ja kahdeksannella luokalla pyysin opettajalta pascal-harjoituksia tehtäväksi, koska tunneilla oli tylsää ja tiesin, että yhdeksännellä luokalla tehtäisiin niitä. Tein harjoitustehtäviä, joita pascal-tehtävämonisteissa oli. Pascal, hyvin vähän javaa sekä html:ää ja MS DOS editin ohjelmointikieli. Parhaiten näistä osasin silloin Pascalia."
151,6,5,8,"Ohjelmoinnin harrastaminen on jäänyt vain ohjelmointikursseille, jossa olen tehnyt erilaisia harjoitustehtäviä. Pascal-kielestä muistan vielä jonkin verran, sekä uutuutena C-kielen lukion kursseilta, josta osaan perusteet. Jos ohjelmointikieleksi lasketaan HTML-kieli, osaan sen lähes täydellisesti."
171,6,1,5,"Joitain pieniä koodaamiani ohjelmia: Kello, matopeli, muistipeli, melko yksinkertainen piirto-ohjelma, ristinolla, Sivultapäin kuvattu 2d-lentelyräiskintä(Tosin vielä keskeneräinenttötottumuksesi muuttuneet virtuaaliapprobatur-opintojen alkamisen jälkeen? Jos on, niin kuva), Lauma (  Swarm  , eli tekoälyä mallintava systeemi, jossa on eräänlainen emo, jota muut eliöt seuraavat vältellen samalla kuitenkin toisiaan), Hanoin tornit, yms. yms. Javalla olin ohjelmoinut noin vuoden ennen näitä opintoja. Hallitsen sen mielestäni jo melko hyvin, joskaan kaikkia javan hienouksia en ole vielä päässyt kokeilemaan käytännössä. Tarkoitan siis lähinnä sitä, että vaikka osaankin apidokumenteistä lunttaamalla esimerkiksi verkkoa/internetiä hyödyntäviä ohjelmia tehdä, en kuitenkaan ole sellaista vielä varsinaisesti tehnyt.  Jonkin verran olen tutustunut myös C++:aan, ja ensikosketukseni ohjelmointiin sain Pascal-kielellä, jolla en tosin koskaan tekstipeli-astetta pidemmälle päässyt."
136,9,13,7,en pahemmin jotain pientä kokeilu mielessä... ...
83,3,3,9,"Pari pikkupeliä, mutta enimmäkseen satunnaista sälää. Enimmäkseen ohjelmointi kiinnostaa teoreettiselta kannalta, on hauska tietää kuinka kone toimii. C++ (hyvin), C (suht hyvin), Java (suht hyvin), Assembler (suht hyvin), QBasic (hyvin), Visual Basic (jotenkin), Pascal (jotenkin), BF"
168,3,3,9,"Olen, aloitin viime syksynä C++ ohjelmoinnin, tänä kesänä java-ohjelmointia. Sitten myös pohjatiedot Visual Basicissä ja Pascalissa. CC++ hyvin Java hyvin Pascal hyvin Basic hyvin"
152,5,7,9,Kurssi kesällä. Javan perusteet
177,2,2,5,Quick Basicilla kaikenlaisia virityksiä... (lähinnä pelejä) Visual Basicilla omaan käyttöön ohjelmia ja alkeellisia pelejä.  Html- ja Php-kielellä kotisivuja...  Komentotulkkikielellä (bat) kaikenlaisia käynnistysvalikoita 386-koneelle aikoinaan... Quick Basic - Perusohjelmointi + grafiikka Visual Basic - Perusohjelmointi (paitsi tietokanta sovellukset) Html - Hyvin Php - Alkeet BAT - Alkeet Java Script - Ripaus alkeita
141,5,6,3,"Olen harrastanut ohjelmointia n. 3½ vuotta. Eri ohjelmointikieliä olen kokeillut erittän laajasti, mutta enimmäkseen olen keskittynyt C++:aan ja Javaan. Olen tehnyt erilaisia pelejä, pieniä hyötyohjelmia, yms. C++ & Java / Hyvä osaaminen Turbo Pascal, Assembly, Lisp sekä monia muita / Kohtuullinen osaaminen"
130,2,13,5,"Olen ohjelmoinut aiemmiinkin, olen tehnyt Noppapelin, korttipelin, tekstinkäsittely ohjelman ja joitain muita. Visual Basic, C++, QBasic, Java, Borland Delphi Visual Basic on ainut jota hallitsin kohtalaisesti ennen opintojen alkua. QBasicista tiedn joitain peruskomentoja."
95,3,3,5,"Tietokantapohjaisia nettisivuja, chattiappletin (Javalla, se muodostaa yhteyden chattipalvelimelle, ihan hieno tuli siitä), yhden puolivalmiin pelin, useita alle puolivalmiita pelejä, yritin tehdä minikäyttöjärjestelmän assemblerilla, mutta ei vielä onnistunut. Kaikenlaisia muita projekteja on ollut lukematon määrä. BASIC erinomaisesti, PERL hyvin, PHP hyvin, ASSEMBLER äärimmäisen vähän, C++ jokseenkin vähän, JAVA jokseenkin vähän."
69,7,13,1,"Koulussa otin yhden kurssin Pascalin alkeita, siinä kaikki. Pascalin, pienissä määrin, mutta omaksuin algoritmisen ajattelun aika nopeasti."
146,2,2,5,"Ohjelmointia lähinnä basicilla ja sen semmosilla. Tekstiseikkailuja ja muuta turhaa tullu väsättyä. Vähän koitin myös joskus opiskella C++ ohjelmointia, sekä visual basicia. C, C+ ja C++, visual basic, basic yms. mitään en osaa kunnolla, paitsi basicia ihan vähän."
110,2,2,5,"Kyllä vaan. Q-Basicilla joitain pelejä ja grafiikkademoja, Visual-Basicilla paljon kaikkea pientä (ukkostutka, puhesyntetisaattori), Assemblyllä olen esimerkkipohjalta väännellyt servokontrolleriohjelmaa mikrosiruille. (eli en mitään   älykästä  )   Q-basic (melkein täysin), Visual Basic (hyvin), Assembly (tosi vähän), C++ (aloittelija), Java (silloin en paljoakaan nyt melko hyvin), C (en ole kokeillut), Pascal (en ole kokeillut), Delphi (en ole kokeillut)"
147,3,3,3,"Laajin ohjelmointi projektini on jonkin sortin taistelusimulaattori, jossa molemmilla pelaajilla on erilaisista yksiköistä koostuvat armeijat. Vuoropohjainen käyttöliittymä ja laajat komentomahdollisuudet. Tein ascii grafiikalla tosin, koska c++ -kääntäjäni ei pitänyt grafiikasta. Keinoäly ei toimi välttävästi (suoritin muutamalla random-funktiolla) Mutta yleisesti erittäin onnistunut koitos. n. 2500 riviä C, C++ ja Java hyvin (omalla skaalallani)... toiminnot hallussa, mutta jotkut ihmeelliset veivit eivät oikein."
180,3,3,9,"Olen harrastanut aikaisemmin ohjelmointia QBasicillä sekä vähän C++:lla ja Javalla. Isompia projekteja en ole hirveästi saanut valmiiksi, pari pientä peliä vain. QBasic hyvin, C++ kohtalaisesti, Java aika hyvin."
84,3,3,9,"Hyvin vähän javaa. Ihan javan perusteet kuten tulostaminen, laskutoimitukset, kääntäminen ja ohjelman suorittaminen Javaa tunsin hyvin vähän. Nyt hallitsen sitä sen verran mitä on opiskeltu tähän mennessä."
102,5,7,9,Olen harrastanut ohjelmointia oikeastaan hyvin vähän ja opetellut perusteita. En niinkään ole saanut aikaan mitään suuria ohjelmia. Java. Vain perusteet.
117,7,6,3,"Olen pikkuisia sovelluksia tehnyt mm. C++:lla, jakoon olen laittanut pari yksinkertaista, matemaattisiin aiheisiin liittyvää ohjelmaa..  nuo ohjelmat voi ladata vaikkapa osoitteesta http://koti.mbnet.fi/pyryk/ohjelmat.html(nuo sivut käyttää mm. CSS:ää,joten käyttääkää,jos mahdollista, kohtalaisen uutta selainta) p.s. millään unix-koneellahan nuo eivät luultavasti toimi,sillä taisin käyttää ohjelmien kääntämisessä Microsoft Visual C++ 6:ta. =/ C/C++: kohtalaisen osaaminen..perustaidot(siis todella perus) osasin,en osannut(enkä vieläkään osaa)ohjelmoida esim. graafisia sovelluksia tai vaikkapa tietokoneen hardwareen liittyviä sovelluksia."
143,1,13,7,hiukkasen. kaikenlaista.. pieniä pelejä ja jotain muuta pientä. java. osaan hiukan. tunnen perusjutut osittain.
104,4,12,3,"lukiossa oli jotain ohjelmointia, mutta se oli 1988-1989 html:ää ei kai lasketa ohjelmoinniksi en mitään"
142,5,13,3,"No vähän C++:lla olen harrastus mielessä jotain pientä kavereiden kanssa koittanut vääntää... C++, alkeet."
153,8,10,2,"en. Java ja C++, mutta en osannut tehdä niillä mitään."
116,3,2,8,"Kotisivut nettiin. Eli hallitsin HTML:n alkeet HTML, java. HTML:stä tunsin alkeet ja javasta en mitään - ennen tätä kurssia"
90,8,10,2,"en ole olen tiennyt eri ohjelmointikielien olemassaolosta, mutten ole käyttänyt niitä."
88,3,3,9,"En ole. Java, en hyvin."
91,5,13,7,"olen yritänyt ja tehnytkin joitain omia pieniä pelejä, mutta varsinaisesti olen vain harjoitellut ja kehittänyt taitoa ohjelmoida... Qbasic, Turbo Pascal, Html, java.."
92,3,3,9,"Olen tehnyt Javalla kaikenlaista. Pascalia hyvin vähän, Javaa jonkin verran perusteita enemmän"
164,4,1,3,En ole harrastanut aiemmin. En ole aiemmin tutustunut ohjelmointikieliin.
176,2,3,5,"pelejä ja mp3-soittimen visual basic (hallitsin mielestäni todella hyvin), java, pascal ja c++(osasin joitain perusjuttuja)."
161,8,10,2,"Olen. Kokeilin joskus kauan aikaa sitten ohjelmointia QBasicilla (tein kaverin kanssa 10000 riviä pitkän tekstiseikkailun =) ja C++:lla (en osaa kumpaakaan enää yhtään =). Aloitin javalla ohjelmoimisen puolitoista vuotta sitten. Javalla en ole tehnyt mitään mainittavan hienoa itsekseni (jotain pieniä harjoituksia), mutta töissä sitten olen plärännyt javan kanssa aika paljon. Java: Hyvin C++: Ihan ihan ihan perusteet QBasic: En muista enää mitään VisualBasic: En osaa yhtään (tai ehkä napin teko onnistuisi =) HTML (jos tuo lasketaan ohjelmointikieleksi): No kyllä kotisivujen teko onnistuu.  Muita ohjelmointikieliä jotka tiedän (ja mitä niillä voidaan tehdä), mutta en osaa ohjelmoida kyseisillä kielillä: PHP, JavaScript, C, Perl, Assembler"
122,5,9,1,"Mitä nyt yläasteella Pascal-ohjelmalla. Piirrettiin ympyröitä. Yläasteella käytettiin Pascal-ohjelmaa, se oli aika helposti hallittavissa."
156,5,13,7,"olen ohjelmoinut joitakin pelejä ja koulussa olen tehnyt joitakin ohjelmia java: nyt opitut. q-basic: pieniä muistikuvia. turbo pascal: hieman vielä muistan. html(jos se luetaan): kohtuu hyvin. c, c++: tiesin."
172,5,13,3,"Web-käyttöliittymiä tietokantoihin, pelejä, pieniä ohjelmia ratkaisemaan joku itseään vaivannut pulma, lauseke-evaluaattori (laskee lausekkeita tyyliin   ln(5.6^7.2)*sin(4)+pi  (basic) Pascal/Delphi, java, c/c++, perl"
157,8,10,2,EN :) olen tiennyt jotenkin olevan olemassa.
185,6,9,3,kotisivut java melko huonosti html ihan ok
158,7,2,1,"Pascaliin pohjautuvalla ilmaisversiolla Delphistä (4 tai 3?) tein muutamia hyötyohjelmia ja pelejä omaan käyttöön. html oli minulle tuttu, sillä olin ohjelmoinut erään sukulaisen yritykselle kotisivut, Basic:ia ja Pascaliakin opin. Basicin omalla ajalla harrastaen ja Pascalin koulun ohjelmointi kurssilla."
0,1,4,3,Applebasicia enempi ja Visualsemmoista vähempi...  Applebasicilla tein kaikennäköisiä hassuja ohjelmia... Kattos tuota kuuttatoista...
1,1,5,3,Lasketaanko laskimen ohjelmointi ja dosin komentojonohommat? Entä html? Enpä oikeastaan siis. 
2,3,2,5,"Olen harrastanut ohjelmointia mm. C++-, Java-, Visual Basic - ja Python-kielillä. Näistä olen viime aikoina käyttänyt lähiaikoina lähinnä C++:aa ja Javaa, mutta olen suunnitellut tutustuvani Pythoniin hieman lähemmin lähiaikoina. Olen satunnaisesti ohjelmoinut muutamia pelejä ja kaikenlaista muuta. Mitä nyt on sattunut mieleen juolahtamaan... Katso äskeinen. Tunnen mielestäni Javan ja C++:n aika hyvin. Visual Basicia kohtalaisesti, sekä Pythonista noin alkeet."
3,4,7,1,"Joskus pikkupoikana 486:sen aikoihin tein .bat tiedostoja, jotka toimivat eräänlaisena pelien käynnistystiedostoina.  Lukion ohjelmointi kurssille tein laivanupotuspelin Pascalilla. Basicia jonkun verran, Pascalia kohtalaisesti samoin kuin C++:saa ja Javaa ihan vain pintapuolin"
4,5,13,7,ihan vähän joskus Qbasicilla pieniä animaatioita yms. java(tiesin vain) Qbasic(osasin jotakin)
5,5,13,1,"QBasicilla olen joskus pienenä leikkinyt sekä tietenkin nuo kaksi ohjelmoinnin kurssia lukiossa. QBasic, C ja Pascal. Hallitsemiseni on lähinnä aloittelijan tasolla."
6,3,3,5,"Grafiikkaa mm. matemaatisesti QBasicilla, Pascalilla ja C:llä. QBasic: en muista paljoa.  Pascal: melko hyvin.  C: melko hyvin(en c++ ominaisuuksia)."
7,7,2,5,"olen tehnyt quick basicilla pelejä ja ohjelmia. Basic, voisin sanoa hallitsevani hyvin, sillä osaan tehdä grafikkaa sisältäviä 2d pelejä."
8,3,11,6,"sen java-kurssin, en paljoakaan muuta. javan, olen kuullut myös c:stä ja c++ ja joistain muista sellaisista muttenosaa niitä.."
9,6,5,8,En ole. Vain todella vähän html-kieltä. Hallitsen html-kielen todella heikosti.
10,7,6,3,"Javalla, QBasicilla ja PHP:llä on tullut tehtyä yhtä sun toista.  QBasicilla tuli tehtyä pieniä pelejä ja harjoiteltua ohjelmointia, Javaa käytän nykyäänkin melko paljon, PHP:llä olen tehnyt nykyäänkin netissä olevat sivuni (http://www.paivola.net/~sami) QBasic (ja muut basicit), asteikolla 1-10 luulisin osaamiseni olevan n. 8-9.  Java, osaaminen n. 7-8.  PHP, osaaminen n. 9.  C++, osaaminen n. 1-3. (lukenut joskus aivan alkeita ja siihen se silloin jäikin)"
26,5,7,1,Ohjelmointi kurssin näyttötyön. Turbo Pascal. Vain perusteet
11,6,5,8,"En ole juurikaan harrastanut ohjelmointia (jos html-  koodia   ei lasketa). Periaatteessa tunsin monia kieliä, ja olen kopioinut   hello worldin   useallakin kielellä, mutta koskaan en aikaisemmin ole mitään oppinut."
12,2,2,5,"Olen harrastanut. Kaikenlaisia ohjelmia on tullut tehtyä. Netistä löytyneitä vinkkejä käyttämällä ja omia juttuja yhdistelemällä. Basic ja Visual Basic sujuvat ihan hyvin. C, C++ ja Delphiä on tullut kokeiltua, mutta on jäänyt käyttö vähälle niiden monimutkaisemman rakenteen takia."
13,7,11,6,"En en mitään. basicistä, pascalista ja c:stä olin kuullut."
14,1,6,3,"Javaa olen aloittanut kolme kertaa, mutta ei ole aina innostanut. Jos tässä puhutaan ohjelmointikielistä, niin kuvauskielet ei käy, joten en voi sanoa html:ää, css:ää... hmm... PHP:sta osasin aivan perusteet... :D"
39,1,13,3,Olen tehnyt Gamesfactorylla pieniä pelejä jos sitä nyt ohjelmoinniksi voi sanoa... en muuta kuin tuota gamesfactorya... eli siis en...
15,6,5,5,lähinnä vain basicillä vähän ja pascalilla ihan pikkuisen basic ja pascal kumpaakaan en enää hallitse
46,5,8,3,"En ole. Nimeltä tunsin esim. C++, pascal, java. Ohjelmointia en itse ole harrastanut ennen."
16,5,7,9,"PHP lla kaikkea pientäsäätämistä, forumeja sivuja jne... hlstats softia, paikallisen sään näyttäjiä. Mitä nyt kavereiden kanssa on keksinyt PHP - todella hyvin melkein mikä vain onnistuu. C++ - perusteet. Java - perusteet. VB.NET - perusteet. ASP - perusteet. mIRC-script - hyvin."
32,5,2,3,Koulussa C++ -kielellä erilaisia juttuja. Tyydyttävästi
17,6,6,3,"Jonkin verran. Aloitin Qbasicilla ja koulussa opeteltiin Pascalia.  Grafiikka osaan toistaiseksi vain pascalilla ja basicilla (ainakin osasin joskus). Pieniä C++-ohjelmia olen tehnyt ja mielestäni osaan kieltä kohtuullisesti. Tekstipohjainen jätkänshakki taitaa olla paras saavutus (vuoropohjainen). Alkeellisen   herätyskellon   olen onnistunut myös tekemään. PHP:llä lähinnä tiedoston käsittelyä ja muita pikkuhommia, mutta vähän opetteluvaiheessa vielä. Kotisivuille yksinkertainen kävilaskuri on tehtynä (tai ennemmin laskee monesti sivu on ladattu). MS-DOS:lle sopivaa 16-bittistä assemblyä olen opetellut, mutta äärimmäisen vähän. Tekstiä saan printattua ruudulle ja laskettua pieniä laskujakin, mutta siihen se sitten jää. Taisi tulla osittain jo äskeisessä. Sanotaan etten osaa todella hyvin mitään ohjelmointikieltä, mutta monia jotenkuten. C++ on ehkäpä vahvin tällä hetkellä ja sitä olenkin eniten opiskellut."
18,3,3,9,"TCL scriptaa omiin tarkoituksiin TCL-  scripti  -kielen hyvin, enemmän kuin perusteet javaa."
19,6,9,1,"QBasic yläasteen 7. ja 8. -luokalla, Pascalia yläasteen 9:llä, ja C:tä lukion ekalla. Basic, huonosti Pascal, huonosti C, huonosti"
55,6,5,8,"Ylä-asteella pascalilla jotain. Sekä grafiikkaa, että tekstipohjaisia ohjelmia pascalin ja c kielen. en hallitse kieliä kovinkaan hyvin..."
20,1,5,3,"Olen. Olen ohjelmoinut mircciä(irc-clientti) ja jos html:llää voi kutsua koodikieleksi, niin sitä. No mircin ohjelmointikielen(poikkeaa yllättävän vähän esim. javasta) ja mikäli html:llää voidaan sanoa ohjelmointikieleksi, niin sen. Ja asteikolla 1-10 osaan ensimmäistä varmaan ~9 ja jälkimmäistä ~7"
29,7,12,3,Olen saanut monet keskeneräiset kotisivut koodattua ns. helppo-ohjelmalla. Ei mitään mainitsemisen arvoista. 
27,6,12,8,en En mitään. Paitsi jos html-kieli lasketaan? Se on kohtalaisesti hallussa.
59,8,10,2,En. Tiesin kyllä että niitä on olemassa mutten osannut tehdä niillä mitään.
31,9,12,4,En ole harrastanut en mitään
67,9,12,3,Vähän olen kokeilut mut ei siitä mitään tullut 
51,8,11,6,"En ole. Ennen kurssia olin kuullut Javasta ja C++:sta, mutta en ollut koskaan käyttänyt niitä."
21,6,5,8,"En ole. Java, en hallinnut ennen aloitusta C ja C++, ihan vähän Basic, vähän Pascal, en lainkaan Html, en lainkaan"
61,3,5,3,"Jos HTML on ohjelmoitia niin olen ja toden teolla. HTML -> niin hyvin, että olen ammattilaisten tasoa (open mielestä ja omanikin)"
30,6,8,8,"olen säätänyt ja optimoinut osasin vähän ohjelmoida basiccia ja tunsin nimeltä kielet: pascal, c, c++, java. Päivölän ohjelmointikurssilla opin jonkin verran Javaa."
35,3,5,8,"Olen ohjelmoinut viime vuosien aikana kaikenlaisia 3d-pelejä ja hyöty-softaa. C++, Java, DBPro, HTML ym.  HTML,DBPro ja C++ kielet hallitsen hyvin. Javaa on tulut hiekkasen vähemmän käytettyä, mutta ei se paljoa C:stä poikkea =)"
63,2,12,3,"En C en ollenkaan, C++ sama, Virtual basic sama, Qbasic dossin ajoilta jotakin osasin, Assembly en mitään"
22,2,1,5,"Hieman C++:lla tein tietovisa ohjelman. Koulussa C++ ja Basic C++:sta en paljoa, Basicin osaan suht hyvin jos kertaan sen kerran (jotain asioita unohtunut)"
23,9,12,4,En. En mitään.
49,5,13,7,"QBasicilla jotain pieniä ohjelmia itsekseni, koulussa Turbo Pascal- ja muita perusohjelmointikieliä. QBasic (perusteet) Turbo Pascal (perusteet)"
62,6,11,6,enpä ole. Olin kuullut Java kielestä ja c++ sta mutta minulla ei ollut pienintäkään hajua niistä.
24,7,13,7,"Ohjelmointia on tullut harrastettua n. 10 vuotiaasta asti, jolloin en tietenkään osannut tehdä mitään. Jotain juttuja Qbasiclla ja sellaista. Sitten rupesin ohjelmoimaan Pascalia, en silläkään saanut mitään oikeastaan aikaiseksi. Sitten 14-v javaa ja uusin kieli c++ ja sillä OpenGL:ää. Vähemmälle on kyllä ohjelmointi jäänyt koulujen alettua. Object Pascal: Perusteet hallussa Java: Jonkin verran, jotain tietovisa-appletteja ja pieniä pelejä olen tehnyt.  C++: Kohtalaisesti, enimmäkseen pelejä ja muita 3D-grafiikkajuttuja. Siis OpenGL rajapinnan avulla."
42,3,3,3,"http://ircquotes.bittivuoto.net/ on 100 prosenttisesti  omaa käsialaa (useita kymmeniä tuhansia sivuhakuja päivittäin) http://bittivuoto.net/ pieneltä osalta minun tekemä IRC-palveluita ja pelejä.  Paljon linux-softaa ja jonkin verran windows-softaakin.  Java Raytracer http://ircquotes.bittivuoto.net/java/test.html C(++),PHP -- Erittäin hyvin hallussa Delphi (Object Pascal), Perl, Python -- Hyvin hallussa Java -- suht hyvin hallussa"
64,7,8,3,"Peruskoulussa, harjoitustehtäviä Sen yhden, mitä tehdään esim TurboPascal:illa"
25,3,3,5,"Olen harrastanut ohjelmointia aiemmin. Olen tehnyt kaikenlaisia pelejä ja ohjelmia milloin mitäkin on tullut mieleen. Java (osasin suunnilleen yhtähyvin kuin C++), C++ (suhteellisen hyvin), Object Pascal (nykyään en kovin hyvin enään osaa/muista), Visual Basic (nykyään en kovin hyvin enään osaa/muista)"
58,9,12,3,"GameMaker-ohjelmalla oman pikkupelin, mutta siinä ei varsinaisesti tarvinnut ohjelmointikielen opettelua. en mitään"
41,3,1,9,"Käytin QBasicia muutama vuosi sitten, mutta hyvin vähän. Viime vuosina olen käyttänyt jotakin C++:n käännöstä, mutta sitäkin vain vähän. QBasic, en kovin hyvin"
36,6,5,8,"Olen harrastanut C-kieliä jonkun verran. Olen Skriptannut mIRC-clienttiä, sen koodi muistuttaa php:tä. Olen myös kokeillut Delphiä ja Visual Basic:ia. C, C++, Java, php, html, Visual pascal, Delphi, Turbo pascal, assembler Hallitsen C/C++ kielen perusteet"
33,3,3,3,"C++:lla pienikokoisia pelejä, ja hyötyohjelmia perheenjäsenten käytettäväksi C++, erittäin hyvin Java, kohtalaisesti"
60,7,7,1,"Viime vuonna kävin Ohjelmointi kurssin jossa teimme lopputyöksi yhden isomman ohjelman josta sitten tuli numero arviointi.  Yläasteella myös hiukan perus juttuja Logolla sekä Pascalilla. Ainakin Turbo Pascalilla on perus asiat hallussa, joka on tähän mennessä java ohjelmoinnissakin ollut hiukan apuna ns. perus pohjatietona."
47,8,11,6,"No olenhan minä. Tosin en ole tehnyt mitään suurempaa, mutta kaikkea perusjuttua kyllä. C/++ --> hyvin Java --> olin kuullut (helppo siirtyä C++:sta)"
34,6,5,8,"Olen vähäsen ohjelmoinut koulussa Pascalilla ja kirjastosta saamieni kirjojen avulla opetellut Java-ohjelmointia. Java-kieli - perusteet osaan ihan suhtkoht hyvin ja Pascal kielessä vähän huonommin. Olen myös kokeillut C++ kieltä, mutta se on minulla vielä vähän hämärän peitossa."
37,8,10,3,"E. HTML-koodausta ei lasketa, ja samalla CSSä. Vissiin oon jotain alkeita kokeillu Basicista, C++sta ja Javasta. Ei oo tullu mitään suurempaa innostusta. Jos se html lasketaan niin se, ja sit vähän css:ää, jälkimmäistä en niin hyvin kun emmä ikinä muista miten ne tehään ja pitää sit luntata jostain. Html nyt paaremmin, sillä nyt ei tarvi melkeen mitään tehdäkään. Eli en osannut siis mitn."
38,8,10,3,"Joitain pienehköhä ohjelmia, esim. ratkiriemukkaita numeronarvauspelejä. Opetellut alkeet Pascalista, C/C++:sta ja Perlistä mutta mielenkiinto on aina loppunut kesken. Kaikilla siis osaan/osasin joitakin perusjuttuja tehdä mutten mitään ihmeempää."
40,5,13,7,"olen ohjelmoinut jotain pieniä pelejä ja jotain sellaista pientä java, QBasic, Turbo-Pascal, C++"
43,6,9,3,"-- Aina olen tainnut tuntea vain javan. Ja huonosti osaan, jos ollenkaan."
