,,,,Course=Viscos / DM 2013 course data
,,,,Question=26&28. Vanhemmat
,,,,Answers=95
,,,,K-means/Spectral clusters=10
,,,,Affinity clusters=16
,,,,Stemming=yes

id,k-means,affp,spectral,text
138,7,3,2,"Äiti: sähköposti, pelailu (pasianssi ym.), satunnaiset työasiat: tiedotteet oppilaiden vanhemmille ym. (luokanopettaja) Isä: maatalouskirjanpidon teko, satunnainen surffaus Vaikka kummallakaan ei varsinaisesti ole käytössä tietokonetta, niin he käyttävät sitä satunnaisesti, kuten kohdassa 11 ilmenee. Esimerkiksi kirjanpito on kuitenkin vain pieni osa maanviljelijän työtä."
114,8,10,2,"Sisarukset pelaavat toisinaan ja vanhemmat käyttävät konetta pankkiasioiden hoitamiseen ja uutisten selaamiseen. Tarkkaa havaintoa käytöstä ei ole, mutta yleisestä tietokoneosaamisesta päätellen tietokonetta käytetään kuin verkotettua kirjoituskonetta. Myös taulukkolaskenta tuntuu sujuvan. En ole kiinnittänyt koko asiaan kovin paljoa huomiota."
107,7,3,8,Työasioihin ja sähköpostin lukemiseen. Äitini käyttää päivittäin tietokonetta työssään tietokantojen tekemiseen ja tarkasteluun. Isän tietokoneen käytöstä työpaikalla en tiedä.
151,6,2,3,"Internet, laskutus- ja työkäyttö, laskujen maksu, kirjanpito Molemmmilla on kone työkäytössä, he käyttävät sitä laskutukseen, laskujen maksuun ja kirjanpitoon."
171,1,10,2,"Toinen isoveljistäni koodaa ja käyttää konetta opiskelun apuvälineenä. Toinen isoveljeni taas säätää niitä työkseen. Isäni on se joka tietotekniikan perheeseen alun perin toi. Nykyisin hän käyttää tietokonetta jossain määrin töihin ja myös esimerkiksi sukututkimuksen apuvälineenä. Äitini joutuu käyttämään jonkin verran konetta töissään, mutta on meistä kuitenkin vähiten osaava. Hmm.. Meneeköhän tämä kysymys kenties päällekkäin kysymyksen no. 11 kanssa?"
136,8,14,2,Porukoilla on oma tietokone jota he käyttävät pankkiyhteyteen ja pikkusisko pelaa sillä joitain pelejä. tekstinkäsittelyyn ja taulukkolaskentaan sekä internetinkäyttöön
83,9,7,10,"netissä surffaamiseen, töihin. konttorityöhön (kanslisti ja taloussihteeri)"
168,2,12,9,Äiti pelaa harvoin pasianssia 
152,3,1,2,Englannin opiskeluun 
177,4,7,1,"Laskujen maksamiseen netin kautta, ilta-lehden lukemiseen, tiedonhankintaan ja pelaamiseen CNC-metallisorvausrobotin ohjelmointiin ja yrityksen talouden hallintaan."
130,6,2,1,"Laskutukseen ja pelaamiseen Laskujen laatiminen ja maksaminen, aika vähän."
95,3,4,2,"Chattailuun Itse asiassa minulla ei ole aavistustakaan. (Hieman epäauttavainen vastaus, mutta näin asia on)"
69,9,2,1,"Erilaisten pelien pelaamisen, musiikinkuunteluun ja lataukseen, laskujen maksuun, asiakirjojen kirjoittamiseen, chattailuun, sähköpostiin.. asiakirjojen kirjoittamiseen, laskujen maksamiseen, sähköposti,"
146,6,2,3,"Pelaaminen, laskujen maksu. "
110,2,12,9,"Pikkuveljeni MikkoMakko pelaa Counter-Strikeä, Äiti pelaa iltaisin chattailyn ohessa biljardia pasimaailmassa ja makselee laskuja. Tekstinkäsittely. 1hvko."
147,7,3,2,Muu perheeni käyttää tietokonetta vain sähköpostiin ja työasioihin He kirjoittavat tietokoneella dokumentteja lähes päivittäin
180,7,4,2,"Töiden tekemiseen ja pelien pelaamiseen. Isälläni kirjoittaminen ja kuvankäsittely, äidilläni yrityksen yleisten asioiden hoitaminen. Käyttöä kertyy kummallekin vanhemmalleni ehkä noin 4 tuntia päivässä."
84,10,5,6,"sähköposti ja internet, pelaamiseen Sähköposti ja internet. 1h/viikko"
102,4,2,1,"Pelaamiseen, työasioihin, irkkaamiseen, laskujen maksamiseen. "
117,7,8,2,"Isäni käyttää mm. esitelmien tekemiseen, digikuvien muokkaamiseen, sekä kummatkin vanhempani mm. maksavat laskuja koneella. Työtarkoituksiin(esim. sähköposti),en osaa tarkemmin sanoa."
143,3,10,2,"siskoni tekee joitakin koulujuttuja, esitelmiä yms.  äiti ja isi käyttävät työkseen äiti tarvitsee käyttää tekstinkäsittelyohjelmia. isi tarvitsee myös tekstinkäsittelyohjelmia ja internettiä."
104,3,6,2,asun yksin 
142,3,4,10,"Siskoni koulu työhön, vanhempani oman työnsä puolesta ja laskujen maksamiseen. Äitini tarvitseen päivittäin töiden puhtaaksi kirjoittamiseen ja esitysten tekemiseen. Isä kirjoittaa radiologia saneluja puhtaaksi silloin tällöin (siis omia saneluja)."
153,7,3,2,"Veljeni tekee tietokoneella lähes tulkoon kaikkea, isä käyttää nettiä ja äiti ei koske ollenkaa koneisiin. Työilmoituksien ja työntekojen merkitsemiseen päivittäin."
116,4,16,1,"Netissä surffailuun, sähköpostin lukemiseen sekä laskujen maksamiseen. Äiti-> Tekstin käsittelyyn, arkistointiin. Käyttää konetta päivittäin.  Isä-> Tekee viljelysuunnitelmat koneella ja maksaa laskuja. Käyttää konetta keskimäärin kerran viikossa."
90,9,7,10,"koulutöihin, töihin, netissä surffaamiseen, tiedon etsintään ohjelmointiin, taulukointiin"
88,8,14,7,Sähköpostiin ja tekstinkäsittelyyn. tekstinkäsittelyyn melko paljon.
91,6,11,3,"Yleensä sisarukset pelaamiseen tai piirtämiseen, vanhemmat laskujen maksuun ja muuhun vastaavaan... "
92,4,11,4,En tiedä En tiedä
164,9,8,2,"Sisarukset: koulutöihin Vanhemmat: työasioihin ja päivittäisten   juoksevien   asioiden hoitoon Kumpikin vanhempani käyttää työssään konetta päivittäin, esim. erilaisten arvojen tarkkailu koneelta + muut vastaavat työhön liittyvät jutut. Voidaan sanoa, että suurin osa heidän työhönsä liittyvästä aineistosta on koneella. Kumpikin käyttää myös säännöllisesti sähköpostia ja Internetiä."
176,8,9,2,joskus aniharvoin käyvät internetistä jotain katselemassa... jotain tekstinkäsittelyä vissiin äiti väkertää töissään
161,1,15,10,Töihin Molempien työ on riippuvaista tietokoneesta. Äiti opettaa helsingin avoimessa yliopistossa kasvatustiedettä (tai jotain sinnepäin) ja hän valmistelee kaikki työnsä tietokoneella. Isä on toimittaja joten hänen työ on täten täysin sidoksissa tietokoneeseen.
122,7,16,8,Pankki- ja työasioiden hoitamiseen. Äiti tarvitsee päivittäin konetta sähköpostin ja paperitöiden hoitamiseen.
156,4,2,3,laskujen maksuun ja musiikin lataamiseen en tiedä
172,9,5,8,"Pelaamiseen, sähköpostiin, surffailuun, kirjoittelemiseen, kuvankäsittelyyn Sähköpostia, asiakastietokantoja"
157,3,9,1,"surffaa netissä, kirjoittaa jotain "
185,10,7,10,Koulutöihin pelaamiseen internettiin 
158,3,3,2,"Muu perhe käyttää pankkiohjelmia, pelaa, kirjoittaa tai hoitaa laskelmat tietokoneella. Maanvieljely ja metsänhoito suunnitelmat isä tekee siihen tarkoitukseen tehdyllä ohjelmalla."
0,7,15,8,"Sähköpostien lukemiseen, pelaamiseen ja kirjoitamiseen, nettikoneena... Ö..."
1,2,12,2,"Vanhempani käyttävät verkkopankkia, tosin yleensä minun kauttani. Isäni kirjoittaa, hoitaa yhteyksiään ja verkkopankkia melko usein uskoakseni. Äitini vähemmän."
2,8,14,2,"Sähköposti, pankkiasiat, omien sekä yhdistyksen verkkosivujen ylläpito, www-surffailu... En osaa sanoa. Arvioisin että kohtuullisen paljon. (?)"
3,5,15,8,"Vanhemmat käyttävät tekstinkäsittelyyn ja internetissä asiointiin.  Pikkuveli enimmäkseen pelaamiseen, nettailuun ja tietokonepelien kenttäsuunnitteluun. Äidillä on työpaikallaan tietokone, ja hän käyttää sitä tiedonhakuun, sähköpostin lukemiseen ja työpaikan asioiden hoitamiseen."
4,6,2,3,"maksujen maksuun, e-mailiin, veikkaukseen heillä on kuntosali ja kone merkkaa ylös käviät yms."
5,6,4,2,"Vanhemmat maksavat laskuja, isoveli tekee samoja asioita kuin minäkin, mutta vähemmän. Isä hoitaa yrityksensä kirjanpidon tietokoneellaan."
6,5,10,5,Ei käytä. 
7,7,4,2,"Sisko piirtää kuvia, skannaa ja muokkaa photoshopilla. Äiti tekee jotain työ juttuja wordilla. Äiti käyttää ehkä tunnin pari per päivä työtarkoituksiin ja sähköpostin käyttöön."
8,7,15,8,"Lähinnä pelaamiseen, veljeni kuuntelee myös musiikkia, myös sähköpostin lukemiseen on tietokonetta käytetty Äiti käytää taulukkolaskentaan, sähköpostiin yms. (näin luulisin) ja isäni tietokoneen käyttötarkoituksesta en ole varma, altaiden erilaisia vesiarvoja siellä ainakin on ja hälytykset menevät koneille."
9,9,11,1,"Netissä surffailuun ja laskujen maksamiseen. Myös jonkin verran pelailuun ja hyötykäyttöön. 0,5-1 tuntia päivässä. Raporttien kirjoittamiseen."
10,7,11,2,"Pelaamiseen (sisarukset), netissä käymiseen (sisarukset), kotisivujen tekemiseen (sisko), työasioiden hoitamiseen, tekstinkäsittelyyn ja muuhun hyötykäyttöön (vanhemmat, toisinaan myös sisarukset) Molemmilla on tietokone työssään.  Isä käyttää sitä lomakkeiden täyttämiseen ja tekstinkäsittelyyn, äidistä en tiedä kovinkaan tarkkaan, mutta hän käyttää sitä moneen eri tarkoitukseen."
26,10,5,6,"Internet, Word-asiakirjoihin. "
11,3,8,2,"Lähinnä samoihin kuin itsekin, he eivät tosin ole niin kiinnostuneita koneista, kuin itse olen. Pienemmät sisarukseni myös pelaavat huomattavassa määrin koneella. Isäni käyttää työssään konetta jatkuvasti, sillä hän tekee töitä it-firmassa. Äiti käyttä erittäin harvoin, vain silloin kun pitää jokin virallinen paperi kirjoittaa puhtaaksi."
12,9,8,1,"Sähköpostin katsomiseen, netissä surffailuun, kirjoittamiseen... Kirjoittamiseen, kirjanpitoon ja muuhun työhön liittyvään. Ajasta ei ole tietoa."
13,2,12,9,"ei tietoa, varmaan pelaavat jotain "
14,7,4,2,"Äiti ei mihinkään ja isä käyttää työn takia ja sitten yleisen surffailun. Äiti: Sairaalassa esim. työvuorolistat, labrat, röntgenit etc...  Isä: koko päivä muottisuunnittelua. Ennen oli I-deas, mutta nyt on joku uusi ohjelmisto."
39,7,16,1,"Netti, pelaaminen, työt, laskujen maksaminen jne. Isäni on ATK-asiantuntija meidän kunnassa eli siis päivittäin ja vähän kaikenlaisissa hommissa.  Äitini on töissä myös kunnassa ja käyttää konetta päivittäin kaikenlaisiin taulokkolaskentaan jne."
15,4,11,4,Internetissä surffailuun ja laskujen maksamiseen. En tiedä/muista
46,3,8,2,"Isä käyttää erinäisiä webchatteja ja harrastaa yhteydenpitoa sähköpostilla ystävien ja muiden kanssa. Veli opiskelee tietotekniikkaa ammattikorkeakoulussa. Äiti ei kotona koneisiin pahemmin koske. Äiti käyttää erinäisiä lääketietokantoja jne ja joutuu kirjoittamaan työvuorostaan raportit koneella (perushoitaja). Isällä oli silloin kun hän oli vielä töissä käytössään erinäisiä asiakastietokantoja, kunnan väestötietokannat ja muut vastaavat koneella työnteon helpottamiseksi(sosiaalityöntekijä)"
16,5,10,5,Ei käytä. 
32,3,16,2,"Isäni ja äitini käyttävät konetta firmojensa raha-asioden yms. hoitoon, sisko enimmäkseen kuuntelee musiikkia ja kirjoittelee. Miltei päivittäin. (kohta 11.)"
17,3,9,1,"Vanhemmat maksavat laskuja, tekevät tilauksia ja käyttävät sähköpostia.  Sisko lähinnä surffaa netissä, chattailee ja pelaa jonkin verran. Äiti ainakin kirjoittelee asiakirjoja. Eivät tarvitse hirveän paljon."
18,1,3,10,Töissä Töissä työtarkoituksiin lähes kokoajan
19,9,15,2,"Pikkuveli pelaamisee, äiti ja iskä työjuttuihin ja pikkusiskot chattaamiseen MSN Messengerillä ja sähköpostin kirjottamiseen/lukemiseen. Iskä käyttää maatalouden kirjanpitoon ja äiti tekee muita kirjanpito juttuja."
55,9,7,1,"Tietojen hakuun netistä, ja netti ostoksiin Taulukkolaskentaan, projektien tarkasteluun... emmmä oikein tiiä kovin tarkkaan..."
20,4,2,1,"Laskujen maksamiseen, foorumeilla keskusteluun ja pelaamiseen. "
29,1,15,10,"Pelaamiseen, surffaamiseen (sähköposti, chattailu, nettipelit), joskus koulutehtävät, työt, musiikin kuuntelu. Äiti oli töissä IT-alalla, joten työt tehtiin jokapäiväisesti koneella."
27,10,4,8,"sähköpostin käyttö, pelaaminen, tekstinkäsittely Äiti opiskelussaan ~3h/päivä, isä laskutuksessa ja rakennustarvikeliikkeen maalinsekoituskoneenohjelmoinnissa ~1,5h/päivä"
59,4,11,4,"Muut sisarukset pelailuun, vanhemmat laskujen maksamiseen sekä surffailuun yleensä En tiedä"
31,2,12,9,Veli pelaa pelejä ja äiti internettiä. en tiedä
67,6,2,3,Laskujen maksuun ja emailin lukuun. 
51,2,9,1,Sisko käy netissä ja pelailee vähä ja isä maksaa laskut netissä. 
21,2,12,9,Äiti maksaa laskut verkkopankissa ja pelaa pasianssia. Pikkuveli pelaa. En tiedä.
61,1,13,2,Peluu 
30,1,8,10,irkki töihin
63,7,16,1,"Laskujen maksamiseen Tietokantojen tutkimiseen, raporttejen tekemiseen"
22,8,14,7,"Pikkuveli pelaamiseen, muut surffailuun. Vanhemmmat tekstinkäsittelyä ja taulukkolaskentaa. Eivät kovin paljoa. Tekstinkäsittely, taulukkolaskenta ja surffailu netissä."
23,1,16,2,"Yleensä pelaamiseen, isä tekee kyllä joskus töitä ja selailee autoliikkeiden nettisivuja...etc... Äidillä ei ole, mutta isä tarvitsee päivittäin, koska hän työskentelee atk-alalla..."
48,5,4,10,"Pikkuveli pelamiseen. Pikkusisko mailiin ja vähän myös pelaamiseen/musiikkiin. Isä työ juttuihin ja tiedonhakuun. Äiti vähemmän. Tiedonkäsittelyyn, kuvankäsittelyyn, tiedonhakuun..jne.."
49,10,5,6,"Internet, pelit, grafiikka. "
53,7,16,1,Laskujen maksamiseen Isä tarvitsee päivittäin tietokonetta tietojen lähettämiseen
62,7,15,8,pelaamiseen ja uskomattomien tyhmien musiikkivideoiden katseluun. sähköpostin lukemiseen.
24,1,9,2,"Pikkuveli tekee kotisivuja, surffaa, irccaa ja ohjelmoi. Isä ja äiti lukevat sähköpostia ja surffaavat. Isä on töissä kiinteistövalvontapuolella, joten hän joutuu tekemää ilmastointeihin, valaistuksiin yms. muutoksia tietokoneella. Äitini on sairaanhoitaja, ja potilastiedot kirjataan tietokoneelle."
42,8,14,7,"Tekstinkäsittely, pankkiasiat Tekstinkäsittely, taulukkolaskenta"
64,10,5,6,"Internet... Internet, pankki palvelut"
25,7,15,8,"Surffaamiseen, sähköpostin lukemiseen, pelaamiseen yms. Äitini käyttää tietokonetta jatkuvasti tekstinkäsittelyyn töissä."
58,8,15,8,"Sähköposti, pankkiasiat, tekstinkäsittely yms. (äiti) Pelaaminen ja taustakuvilla yms. leikkiminen (pikkuveli) "
41,7,3,2,"Sähköposti, pelaaminen, internetkäyttö, juttujen kirjoittaminen. Äitini on mikrotukihenkilö Joensuun kaupungin peruspalveluvirastossa, hän tekee työstään suurimman osan tietokoneella. Isäni toimittaa lehteä kotoa käsin, kirjoittaa juttuja muihin lehtiin ja käyttää tietokonetta päivittäin."
36,7,16,8,"Sähköpostin lukemiseen, laskujen maksamiseen ja hiukan pelaamiseen. Äitini tarvitsee konetta päivittäin sähköpostin käsittelyyn, kotisivujen ja opetusmateriaalin tekemiseen. Isä käyttää sähköpostia, luultavasti päivittäin. Kotona isä pelaa jotain vanhoja pelejä."
33,7,15,8,"Pelaamiseen, sähköpostin tarkasteluun, surffaamiseen Tekstin käsittely, Esitysten luonti. Kohtalaisen paljon"
60,10,5,6,Lähinnä internetin käyttöön sekä pelaamiseen. 
47,6,3,2,He maksavat laskuja ja satunnaisesti yrittävät löytää jotakin hyödyllistä tietoa internetistä. He joutuvat kirjoittamaan raportteja tietokoneillansa.
34,2,5,2,"Laskujen maksuun internetissä, sähköpostin lukemin ja lähettäminen.  Pikkuveli pelaa jonkun verran ja käy internetissä. Isä aika paljon koska hän on myyjä (myyntiasiat ja kaikki tavarat kaupassa on koodattu tietokoneen muistiin) Äiti hiukan vähemmän on nimittäin perushoitaja"
37,8,2,3,"Laskujen maksu, keskustelupalstojen seuraaminen, surffaus, tiedonhaku, email, tekstinkäsittely, kommunikointi msgr ohjelmilla, musiikin kuuntelu, sellasta emmä tiä, aika vähän, tarkistavat jotain tietoja yrityksensä tietokannasta."
38,7,13,8,"Isä sähköpostien lähettelyyn ja muihin työasioihin, äiti Spider-pasianssin peluuseen. Isä lähettelee kai sielläkin sähköposteja ja kirjoittelee asiakirjoja."
40,1,8,10,isäni ja äitini tekevät töitä tietokoneella ja pikku-veli vaan pelailee ja piirtelee esim. johonkin harrastukseen liittyviä töitä.
43,4,11,4,Laskujen maksamiseen kai pääasiassa. En tiedä
