(Konvergointivakio oli 0.001. Halutessasi muuta koodiin hitshaku.c:ssa.)
Ei etsita mitaan, pyoritetaan vain hitsia koko verkolla, kunnes konvergoi.
Konvergoi 26 kierroksen jalkeen
Luettu 39 rivia, 184 sanaa
[Vpaino=0.000] (rivi 12)
[Vpaino=0.000] (rivi 13) ADT.(w=0.000)
[Vpaino=0.000] (rivi 15)
[Vpaino=0.000] (rivi 16)
[Vpaino=0.000] (rivi 19)
[Vpaino=0.000] (rivi 2)
[Vpaino=0.000] (rivi 23)
[Vpaino=0.000] (rivi 26)
[Vpaino=0.000] (rivi 27)
[Vpaino=0.000] (rivi 3)
[Vpaino=0.000] (rivi 30)
[Vpaino=0.000] (rivi 34) /(w=0.001) "Analysing(w=0.000) algorithm(w=0.000) run-time(w=0.000) complexity(w=0.000) performance."(w=0.000)
[Vpaino=0.000] (rivi 35)
[Vpaino=0.000] (rivi 4)
[Vpaino=0.000] (rivi 7)
[Vpaino=0.004] (rivi 18) "Getting(w=0.001) coursework(w=0.022) working(w=0.001) /(w=0.001) debugging."(w=0.001)
[Vpaino=0.004] (rivi 37) "Sorting(w=0.028) algorithms."(w=0.001)
[Vpaino=0.011] (rivi 1) "1.(w=0.002) Difficult(w=0.067) topics"(w=0.002)
[Vpaino=0.015] (rivi 22) "Hash(w=0.096) tables."(w=0.002)
[Vpaino=0.016] (rivi 8) "Hash(w=0.096) tables.(w=0.003) Binary(w=0.003) trees."(w=0.003)
[Vpaino=0.020] (rivi 14) in(w=0.049) "Learning(w=0.003) lectures(w=0.003) sounded(w=0.003) more(w=0.061) simple(w=0.003) than(w=0.003) implementation."(w=0.003)
[Vpaino=0.039] (rivi 25) of(w=0.238) "Purpose(w=0.006) interfaces."(w=0.006)
[Vpaino=0.047] (rivi 29) not(w=0.075) because(w=0.086) were(w=0.093) "Every(w=0.007) topic,(w=0.007) my(w=0.007) programming(w=0.007) foundations(w=0.007) strong."(w=0.007)
[Vpaino=0.047] (rivi 36) and(w=0.270) "Selection(w=0.007) insertion(w=0.007) sort(w=0.007) difference."(w=0.007)
[Vpaino=0.057] (rivi 38) were(w=0.093) of(w=0.238) "All(w=0.009) topics(w=0.009) similar(w=0.009) difficulty."(w=0.009)
[Vpaino=0.089] (rivi 31) to(w=0.311) how(w=0.183) know(w=0.036) "Coursework,(w=0.014) don't(w=0.014) start."(w=0.014)
[Vpaino=0.093] (rivi 39) –(w=0.110) "Hash(w=0.096) the(w=0.301) tables(w=0.046) coding(w=0.015) them,(w=0.015) concept."(w=0.015)
[Vpaino=0.116] (rivi 28) Difficult(w=0.067) and(w=0.270) very(w=0.063) a(w=0.177) "The(w=0.018) coursework!(w=0.018) -(w=0.018) mich(w=0.018) “on(w=0.018) your(w=0.018) own”(w=0.018) assignment(w=0.018) overall."(w=0.018)
[Vpaino=0.129] (rivi 9) "Some(w=0.020) data(w=0.096) structures(w=0.096) like(w=0.020) hashmaps,(w=0.020) graphs,(w=0.020) how(w=0.183) the(w=0.301) are(w=0.047) stored."(w=0.020)
[Vpaino=0.130] (rivi 5) Difficult(w=0.067) "Coursework!(w=0.020) →(w=0.020) to(w=0.311) begin(w=0.020) with(w=0.042) only(w=0.020) lecture(w=0.020) and(w=0.270) lab(w=0.020) knowledge."(w=0.020)
[Vpaino=0.139] (rivi 20) to(w=0.311) with(w=0.042) hard(w=0.101) it(w=0.215) coursework(w=0.022) "Starting(w=0.022) minimal(w=0.022) explanation(w=0.022) made(w=0.053) know(w=0.036) where(w=0.022) begin."(w=0.022)
[Vpaino=0.173] (rivi 33) Difficult(w=0.067) to(w=0.311) –(w=0.110) the(w=0.301) are(w=0.047) more(w=0.061) algorithms(w=0.072) "Sorting(w=0.028) ones(w=0.027) (quicksort)(w=0.027) challenging(w=0.027) code."(w=0.027)
[Vpaino=0.198] (rivi 24) and(w=0.270) "Hash(w=0.096) data(w=0.096) structures(w=0.096) were(w=0.093) of(w=0.238) more(w=0.061) made(w=0.053) tables(w=0.046) up(w=0.031) many(w=0.031) concepts(w=0.031) making(w=0.031) them(w=0.031) seem(w=0.031) complex."(w=0.031)
[Vpaino=0.212] (rivi 11) it.(w=0.067) because(w=0.086) I(w=0.193) it(w=0.215) "Most(w=0.033) of(w=0.238) have(w=0.033) never(w=0.033) studies(w=0.033) Java.(w=0.033) People(w=0.033) already(w=0.033) done(w=0.033) could(w=0.078) easily(w=0.033) do(w=0.033) it."(w=0.147)
[Vpaino=0.215] (rivi 6) to(w=0.311) and(w=0.270) "Recursion(w=0.068) –(w=0.110) it's(w=0.034) hard(w=0.101) think(w=0.034) through(w=0.034) it,(w=0.034) not(w=0.075) much(w=0.034) time(w=0.034) spent(w=0.034) on(w=0.034) it.(w=0.067) Graph(w=0.034) tree(w=0.034) iterations."(w=0.034)
[Vpaino=0.219] (rivi 32) to(w=0.311) "Recursion(w=0.068) –(w=0.110) not(w=0.075) how(w=0.183) the(w=0.301) be(w=0.079) optimisation(w=0.034) obvious(w=0.034) straight(w=0.034) away(w=0.034) as(w=0.034) solution(w=0.034) can(w=0.034) reached."(w=0.034)
[Vpaino=0.286] (rivi 17) and(w=0.270) data(w=0.096) structures(w=0.096) the(w=0.301) of(w=0.238) could(w=0.078) "Not(w=0.045) really(w=0.045) very(w=0.063) difficult,(w=0.045) a(w=0.177) lot(w=0.045) algorithms(w=0.072) be(w=0.079) seen(w=0.045) by(w=0.045) viewing(w=0.045) pseudocode."(w=0.045)
[Vpaino=0.290] (rivi 10) to(w=0.311) hard(w=0.101) "Hash(w=0.096) the(w=0.301) tables,(w=0.045) because(w=0.086) I(w=0.193) didn't(w=0.045) understand(w=0.045) it(w=0.215) in(w=0.049) lecture.(w=0.045) labs(w=0.045) were(w=0.093) quite(w=0.045) compared(w=0.045) other(w=0.045) modules."(w=0.045)
[Vpaino=0.730] (rivi 21) to(w=0.311) and(w=0.270) how(w=0.183) the(w=0.301) I(w=0.193) it(w=0.215) of(w=0.238) it."(w=0.147) a(w=0.177) "Orders(w=0.114) complexity,(w=0.114) big(w=0.114) O(w=0.114) notation(w=0.114) conclude(w=0.114) efficiency(w=0.114) an(w=0.114) algorithm,(w=0.114) thought(w=0.114) wasn't(w=0.114) covered(w=0.114) enough,(w=0.114) but(w=0.114) mostly(w=0.114) felt(w=0.114) that(w=0.114) there(w=0.114) was(w=0.114) lack(w=0.114) supplementary(w=0.114) material(w=0.114) about(w=0.114)
