,,,,,Course=Viscos / DM 2013 course data
,,,,,Question=57. Ongelmia kurssilla
,,,,,Answers=95
,,,,,K-means/Spectral clusters=9
,,,,,Affinity clusters=22
,,,,,Stemming=no
,,,,,
id,k-means,affp,spectral,wilhelmiina,text
0,5,3,4,3,"Kääntäjä takkusi, bugi? Ongelmat ratkes kyllä... WebCT oli helppo nakki..."
1,1,11,3,1,ei ongelmia.
2,2,3,1,1,Ei.
3,7,12,2,1,ei ollut mitään ongelmia
4,2,3,6,3,"sain kääntäjän toimimaan melko myöhään ja ilmottauduin kurssille vähän ehkä myöhässä, ensimmäisten tehtävien piti olla valmiina jo samana iltana ja siinä saatoin vähän jäädä kelkasta."
5,2,3,9,3,"Java-kääntäjän asentamisessa oli pieni ongelma, mutta se ratkesi kaverin ja WebCT:n keskustelualueen avulla."
6,1,13,3,1,Ei ollut ongelmia.
7,4,3,4,2,"kaikki oli helppoa, pienet ongelmat keskustelin kavereiden kanssa ircissä."
8,2,3,5,5,"tehtävien palautus oli hankala, etenkin se class-tiedosto joskus alussa. Ja apua on olut riittävästi, sekä yliopistolta, että tutoreilta ja opskelutovereilta"
9,2,3,8,3,"Alussa oli ongelmia juuri webCT:n kanssa myös tehtävien palautuksissa sekä Java-kääntäjän kanssa oli alussa ongelmia saada se toimimaan kotikoneessa. Kaverin kanssa saime ongelmat ratkaistua ja WebCT:n käyttöä neuvoivat tutor-opettajat sekä koulumme   vanhat   virtuaalit.  Yhä saattaa ilmetä ongelmia java kielen kanssa, mutta onneksi tutor opettajat ja   vanhat   virtuaalit ovat auttaneet."
10,3,3,4,1,Kaikki meni hyvin heti ensiyrittämällä.
11,2,3,9,3,"Java kääntäjän asetukset ovat vieläkin hieman hämärät, mutta sään käännettyä ohjelman Eclipsellä, eli vähän kiertotietä."
12,2,3,9,2,"Ei ollut mitään ongelmia, joita en olisi itse osannut ratkaista."
13,2,3,6,2,"Ei ongelmia, yksi oma moka, jonka huomasin"
14,2,3,6,5,"Ei muuten, mutta toi tehtävän palautus-hommeli piti katsoa ohjeesta, että miten se tehdään, kun oli hieman   outo   ja en uskaltanut vain kokeille... :D"
15,1,14,3,1,ei ollut ongelmia
16,2,3,1,1,Ei ollut.
17,1,15,3,1,Ei ollut ongelmia.
18,1,16,3,1,Ei ongelmia.
19,2,3,6,7,"Ohjelmoinnissa viime vuonna oli ongelmia, missään muussa ei ole ollut vielä."
20,2,3,4,5,"Ongelmia ei esiintynyt kuin tehtävien palauteksassa, joka sekin oli minun omaa ajattelun nopeuden ansiota. Kurssinvetäjä kyllä ymmärssi kämmäykseni hyvin."
21,1,17,3,1,Ei ollut ongelmia.
22,2,3,6,7,"Olimme myöhässä opiskeluissa, ja tuli kiire palauttaa ne. Apua tuli yliopistolta. (saimme hieman lisäaikaa)"
23,2,3,8,6,"Kyllä, oli ongelmia, ja on vieläkin ongelmia Jeliotin kanssa, mutta ajattelin ensin isältä kysyä jos hän kerkeäisi neuvomaan..."
24,7,12,2,1,Ei ole ollut mitään ongelmia.
25,1,20,3,1,Ei ollut ongelmia.
26,2,3,5,2,Sain tarpeeksi apua.
27,2,3,4,2,ongelmat selvisivät kavereiden välityksellä mutta uskoisin että olisi selvinnyt hyvin myös näiltä ´virallisemmilta´ tahoilta.
29,2,3,8,4,"Oli. WebCT:n käyttö oli aluksi monimutkaista. En yksinkertaisesti tajunnut, että ohjelmoinnilla ja perustehtävillä on omat osiot. Tehtävienpalautus oli kans ihan ihme juttu, sekoilen vieläkin sen kanssa. Kaikki apu on tullut kavereilta, jotka suorittavat kans approbatur-opintoja."
30,2,3,8,1,ei|ollut|ongelmia. pääsin ongelmista jo kesällä
31,2,3,5,6,"Noiden tehtävien lähettämisessä oli ongelmia, mutta nyt tiedän jo miten se tapahtuu niin että tehtävät tulee perille asti. WebCT: kin oli oikeastaan aika hankala ihan alkussa. Sain sitten apua."
32,2,3,5,5,Tehtävien palautus ei ensin meinannut onnistua. Sain apua ihan ok.
33,2,3,1,1,Ei ollut
34,2,3,6,2,Eipä ollut suurempia ongelmia. Niitä jos oli niistä ainakin päästiin yli :)
35,2,3,6,3,"Java-kääntäjä ei suostunut asentumaan Windows Me-koneeseeni edes kiintolevyn alustuksen jälkeen. Asensin äskettäin Redhat 9.0 Linuxin, siinä kääntäjä varmasti toimii. Apua en kyseiseen ongelmaan saanut."
36,2,3,8,4,"Alussa oli opettelemista WEBCT:n käytön kanssa, mutta sen oppi aika nopeasti. Apu yms. on ollut hyvä"
37,2,3,4,4,"WebCT on todella yksinkertainen käyttää, vaikken missään aloitustilaisuudessa ollut tai lukenu ohjeita. Englannin kieli ja koneitten tms käyttökokemus auttaa. Ongelmat on sit enempi jaksamisessa tai viitsimisessä, tainno ei sellasiakaan oo oikeen ollu paitsi eilen kun olin jättänyt viimeseen iltaan kaikki ohjelmointi teoriat ja tehtävät. Mut ei siinäkään mitään, tavallisesti ois menny hyvin, mutta en ollu suunnitellu että jaksaisin tehä niitäs sillon. Java-kääntäjällekin löyty ohjeita netistä ja Sunin sivuilta ja selvitin ongelmani siitä nopeasti itse."
38,1,22,3,1,Ei ollut ongelmia.
39,2,3,9,3,"webct oli minulle ihan helppo käyttöinen ja toisekseen se oli isälleni myös tuttu eli jos oli jotain pientä kysyttävää kysyin häneltä...  java kääntäjän asennus sinänsä ei ongelma mutta mutta sen käyttö ei onnistunut alkuun kaikkialta mutta sain minä sen korjattua ihan itse, sitten lopulta."
40,2,3,6,5,olihan minulla vähän tossa ensimmäisen tehtävän paluatuksessa kun en ollut tietokoneen lähellä viikkoihin silloin. ja kyllähän minä nyt osaan käyttää sitä.
41,1,21,3,1,ei ollut ongelmia
42,1,19,3,1,Ei ollut ongelmia
43,2,3,6,1,Joo ei...
46,2,3,9,2,Helposti onnistui ihan itse.
47,2,3,6,6,Flash tuotti hieman päänsärkyä ja epilepsiakohtauksia.
48,2,3,1,1,ei
49,2,3,6,3,"Java-kääntäjällä on kokoa sen verran runsaasti, ettei se asentunut pääkoneelleni. Joudun siis kääntelemään ohjelmat kotipalvelimellani, jolloin kääntämiseen kuluu melko runsaasti aikaa (P133, 32 Mt SIMM, Debian). Eipä näihin apua oikein voi saada ellei saa kunnon rautaa :)"
51,2,3,1,1,Ei ollut.
53,2,3,6,3,Path muuttujan muuttaminen ei onnistunut kun kukaan ei oikein osannut neuvvoa Windos Me:n kanssa enkä saanut sitä laitettua mutta ei se niin välttämätön ole kun tallennan java tiedoston kansioon jossa javac sijaitsee ja sitten käännän
55,2,3,6,5,"Tehtävien palautus tuotti ongelmia! Menin lähettämään tehtävät sähköpostina, kun kukaan ei ollut ohjannut siinä oikein... Kyl se sit seuraavana päivänä selvis kavereilta koulussa et olin lähettäny ne väärin :)"
58,2,3,6,3,"Ongelmia oli java-ohjelmoinnin alussa (opettelin alkeet itse) sekä javan ajamisessa. Javoja en muuten saa ajettua vieläkään.  Palautuspäivämäärien ja näyttökokeiden päivistä ilmoittaminen tökkii, samoin kuin tiedonkulku yleensä. Parannusta kuitenkin jo hieman kurssin alkuun nähden."
59,2,3,6,2,"Ei ollut ongelmia. Jeliot kaatui minuutin käytön jälkeen, mutta eihän sillä mitään tehnytkään."
60,2,3,5,3,"Aluksi oli pieniä sotkuja kääntäjän asentamisessa, mutta sitten sain sen toimimaan. Apua on tarvittaessa saanut irc-kanavalla sekä kavereilta."
61,2,3,9,4,"WebCT:n käyttö tuntui todella vaikealta ensialkuun kun en löytänyt kaikkea. Java kääntäjän asentamisessa vanhaan windowsiinni (98) oli pieni ongelmia, nimittäin hävitti koneelta windowsin, mutta kyllä minä sen takaisin sain ja heti rupesin asentelee uutta windossia (XP pro)"
62,1,18,3,1,ei ollut ongelmia.
63,2,3,1,1,Ei
64,2,3,8,2,Kaverin kanssa ollaan keskusteltu ongelmista
69,2,3,9,3,"Java-kääntäjän kansioasetukset olivat sekaisin aluksi, mutta muuten aika ongelmitta sujui aloitus..jos pientä aikaapulaa ei lasketa ensimmäisten tehtävien palautuksessa..."
83,2,3,1,1,ei.
84,1,8,3,1,Ei ollut ongelmia
88,9,3,6,7,"En ole vielä ihan kärryillä ohjelmointitehtävissä, mutta kun aikaa jää niin luulen tajuavani ne."
90,2,3,1,1,ei
91,8,3,6,1,empä muista..
92,2,3,7,1,Eipä juuri.
95,1,6,3,1,Ei ongelmia
102,1,9,3,1,Ei ongelmia.
104,2,3,5,3,"Java-kääntäjän ja Jeliotin asennuksessa oli ongelmia ja avun niihin sain poikaystävältä, tutor ei osannut neuvoa, eikä ohjaajiltakaan tainnut tulla apua, apua tarjosivat lähinnä muut opiskelijat"
107,2,3,6,5,"Jeliot 2000 ei toimi vieläkään, mutta mitäs siitä. DOS onkin paljon parempi :)."
110,2,3,6,3,"Java kääntäjän kanssa ehkä hieman, mutta IRCistä saatujen ohjeiden ja useiden kokeilujen jälkeen alkoi toimia."
114,2,3,6,1,No problemo
116,2,3,8,3,Alussa oli ongelmia Java-kääntäjän ja jeliotin kanssa. Ongelmiin löysin vastaukset omatoimisesti verkkomateriaalista ja WebCT:stä löytyvistä ohjeista.
117,2,3,6,6,"Tälläinen   pieni   juttu. Mikään kokeilemani selain(IE, Mozilla/Netscape, Opera)ei suostu avaamaan keskusteluforumin viestejä, mutta muilla koneilla tuo toimii. Tämä ongelma ei hävinnyt edes Win 2000:n uudelleenasentamisellakaan..jos haluatte lisätietoja, lähettäkää postia pyryk@mbnet.fi,en jaksa tähän raapustaa,alkaa jo hiukan väsyttää. =)"
122,2,3,6,3,"Javakääntäjä ei todellakaan toimi kotikoneella, edelleenkään. Koulussa se onneksi nyt toimii, joten voin mahdollisesti tarkistaa ohjelmien toimivuuden siellä."
130,2,3,7,2,"No eipä juuri ollut, tehtävänpalautus systeemi oli kyllä vähä huono (ja on yhä)."
136,7,12,2,1,mitään erityisiä ongelmia..
138,1,1,3,1,ei ollut ongelmia
141,1,5,3,1,Ei ole ollut ongelmia.
142,6,3,6,3,"Java ohjelmia en pystynyt helpolla kääntämään, eikä tutorini osannut neuvoa aluksi. Minun piti viedä koneeni kouluun, jotta opettajani sai homman toimimaan. Ongelmana oli se, ettei opettajalla ollut win2k:ta, joten hän ei osannut neuvoa sen käyttämistä. (siis minulla oli polku väärin, ja pari muuta ongelmaa.)"
143,1,10,3,1,ei ollut ongelmia.
146,2,3,6,1,Ei ollut ongelmia. Eli en tarvinnut apuja juurikaan.
147,2,3,1,1,Ei.
151,1,2,3,1,Ongelmia ei ollut.
152,1,4,3,1,Ei ongelmia
153,2,3,6,2,Ei ollut oikeastaa ongelmia.. Ja tutor-opettaja on vastannut kaikkiin matkalla tulleisiin kysymyksiin..
156,2,3,6,3,"no alussa ei ollut mitään ongelmia, mutta nyt kun asensin ADSL-yhteyden ja formatoin kiintolevyn, niin java-kääntäjä on nikotellut: ei käynnistä *.class tiedostoja eikä hyväksy lue-komentoa"
157,2,3,1,1,Ei.
161,2,3,8,2,Ei ole ollut suurempia ongelmia. Alussa en tajunnut painaa Submit assigment nappia. =)
164,2,3,9,3,"Ongelmia oli Java-kääntäjän asentamisessa. Tai oikeastaan itse asentamisessa ei lopulta ollut mitään ongelmaa, mutta alkuun en tiennyt, mitä olisi tehtävä, koska en ymmärtänyt mitään   ATK-kielisistä   ohjeista. Lopulta tajuttuani mitä on tehtävä, ohjelman asennus sujui ongelmitta. Sain ohjeita keskustelufoorumista kysyttyäni asioista. Mitä yksinkertaisemmin kysyin, sitä yksinkertaisemman vastauksen sain, ja sitä kautta pääsin asiassa aina uusille jäljille. Omalla aktiivisuudella oli siis suuri merkitys."
168,7,12,2,1,Ei mitään ongelmia.
171,2,3,4,2,"Ei juurikaan ollut ongelmia. Varsinkaan sen jälkeen, kun löysi selaimen, jolla webCT toimii tarpeeksi hyvin (Operalla ei voi palauttaa tehtäviä)"
172,2,3,6,4,WebCT:ssä ei ole kätevää logout-linkkiä
176,2,3,5,6,"Oli pieniä ongelmia siinä sen Lue.* jutun kanssa pelleilessä, kesti noin 1-1½ h ennen kuin sain toimimaan kunnolla. Apua en kysynyt keneltäkään."
177,2,3,1,1,Ei.
180,1,7,3,1,Ongelmia ei ole ollut.
185,2,3,1,1,ei
