,,,,,Course=Tepe / välipalautekysely
,,,,,Question=1. Miksi kävit/et käynyt luennoilla?
,,,,,Answers=39
,,,,,K-means/Spectral clusters=7
,,,,,Affinity clusters=9
,,,,,Stemming=no
,,,,,
id,k-means,affp,spectral,wilhelmiina,text
Feb27:12:06:092003,4,7,7,4,"En käynyt, aikataulu päällekkäisyyksiä"
Feb27:16:08:342003,5,1,5,2,"Käyn luennoilla, sillä osallistun ongelmalähtöiseen oppimiseen."
Feb28:14:29:452003,6,2,6,5,"En käynyt luennoilla, koska en tee kurssia ongelmalähtöisen oppimistavan mukaan."
Mar1:18:20:382003,3,9,1,4,"Muu meno, tai tein muita tehtäviä. Syy: ??? päätöksentekokyvynpuutostauti... eli siis luentojen osalta osallistumiseni oli 50 - 69 prosentin luokkaa."
Mar2:08:35:182003,5,1,5,2,"Osallistuin ongelmalähtöiseen oppimiseen missä luennot ovat tavallaan pakollisia, jotta ryhmässä ongelmaa voitaisiin pohjustaa."
Mar3:20:00:012003,4,7,2,4,"Kävin aina kun aikataulu antoi myöten, koska asiat olivat liian vaikeita pelkästään yksin opeteltaviksi."
Mar3:20:40:062003,2,5,3,2,"Kävin luennoilla, koska ongelmien pohtiminen ryhmässä oli oikeasti hauskaa. Se ei tuntunut pakolliselta oppimiselta, vaan tällainen 'learning by doing' -menetelmä ikään kuin 'leikin' varjolla opettaa kurssin asioita."
Mar3:22:52:022003,5,5,5,2,"Luennoilla kävin koska osallistuin ongelmalähtöiseen oppimiseen, ja halusin käydä ongelmat läpi kunnolla ryhmän kanssa´. Luennoilta sai myös hyviä esimerkkejä joita ei kirjoista, netistä ja luentomonisteesta löytynyt."
Mar4:08:10:182003,3,9,3,2,"Kävin luennoilla, koska ne olivat mukavia. Suoritin kurssin ongelmalähtöisesti ja luennoilla oli hyödyllistä ratkoa ryhmäläisten kanssa ongelmia. Silloin ei jäänyt niin paljoa hommia kotiin."
Mar4:10:53:052003,1,1,1,4,"Luennolla käyn mielelläni oppiakseni asiat, mutta tänä keväänä en ole ehtinyt luennoilla aikataulullisista syistä."
Mar5:10:14:292003,5,3,4,2,"KÄyn luennoilla oikeastaan joka kerta, koska olen ongelmalähtöisessä oppimisessa."
Mar5:14:27:412003,3,9,1,4,Ajat eivät sopineet.
Mar5:14:41:422003,4,2,7,5,"En käynyt, koska ei ollut selkeitä luentoja"
Mar5:16:18:182003,2,5,3,2,"Luennoilla tulee käytyä niiden ongelmien takia ja siksi, että edes osa opetuksesta on suomeksi, kun taas valtaosa kirjoista on englanniksi. Luennoilla on edes jonkinlainen mahdollisuus oppia kirjoissa esitellyt käsitteet suomeksi."
Mar5:20:01:572003,1,3,1,5,asiat eivät selvinneet luennoilla oikeastaan kuin alkupuolella. luennot muistuttivat enemmän leikkitunteja..
Mar5:21:20:212003,7,3,1,3,"käyn luennoilla koska haluan oikeasti oppiakkin jotakin,ja että jotakin jäisi vielä pitkäkestoiseenkin muistiin."
Mar5:21:24:382003,5,8,1,2,"Erilainen luennointitapa oli kiinnostava, mutta aika vaativa. Aluksi todella vaikea tottua siihen, varsinkin kun on ottanut niin paljon kursseja kevääksi, ettei millään meinaa aika riittää kaikkeen  riittävästi. :( Osallistuin ongelmalähtöiseen oppimiseen, ja minusta tämä opetustapa on mukavaa vaihtelua, ei ollenkaan huono juttu! Lannisti vähän vain juuri aiheen vaikeus, mutta minusta tämä on mukavan erilainen tapa opettaa. Uskon, että ainakin minuun tämä opetustapa siinä mielessä tehoaa paremmin, että tässä joutuu paljon miettimään asioita ja yrittämään toteuttaa niitä käytännössä."
Mar5:22:58:292003,3,9,3,2,ongelmien takia. Suoritan kurssin ongelmalähtöisesti
Mar5:23:25:592003,6,2,6,2,Ilman luennoilla käymistä on vaikea oppia... (teen kurssia ongelmalähtöisen tavan mukaan)
Mar5:23:33:402003,3,5,1,2,"Luennoilla ongelmanratkaisu ja esimerkit tuntuvat valaisevan asioita melko hyvin, ongelmiin pääsee aina paremmin kiinni kun niitä pääsee pohtimaan jo porukassa luennoilla."
Mar6:01:06:422003,3,3,1,2,Suoritusmuotona paikallaolo.
Mar6:03:05:262003,3,9,1,3,Tietääkseni mitä opiskella ja selvittääkseni olenko ymmärtänyt yhtikäs mitään opiskelemastani -> kävin siis.
Mar6:03:20:212003,5,6,1,2,Asioiden oppiminen luennoilla onnistuu yleensä kätevämmin ja ideoita oppimispäiväkirjaan löytyy kätevämmin.
Mar6:09:40:432003,3,3,4,2,Koska ongelmalähtöisessä oppimisessa koen sen lähes välttämättömäksi. On siis mahdollista pohtia ongelmia ryhmissä.
Mar6:10:08:272003,5,1,1,3,Luennoilla asian oppii helpoimmin
Mar6:11:02:192003,2,4,1,2,"Luennoilla tulee yleensä hyviä esimerkkejä juttuihin, jolloin ne tajuaa helpommin. Lisäksi ongelmanratkaisuun saattaa saada jotain osviittaa ryhmäpohdinnoista."
Mar6:11:23:452003,5,1,5,2,Oppimishalu. Osallistuminen ongelmalähtöiseen opetukseen
"Mar6:11:36:202003""",5,8,1,2,onglemalähtöisestä oppimistavasta johtuen luennoilla on aika pakko olla jotta tapusten ratkaisu onnistuisi
Mar6:12:30:032003,3,4,1,3,"Pakkohan se on, että osaa jotain"
Mar6:12:36:152003,2,5,3,2,"Kävin luennoilla, koska ongelmien miettiminen ryhmässä auttoi näkemään asioita eri kannoilta. Myös sen takia tuli luennoilla käytyä, että sai selityksiä asioihin joita ei muuten olisi välttämättä älynnyt."
Mar6:12:38:152003,5,6,1,3,Luennoilla käyminen on tärkeää asioiden ymmärtämisen kannalta.
Mar6:12:43:332003,4,7,2,3,"Olisin käynyt enemmänkin, jos aikataulu olisi antanut myöten, koska asiat olivat liian vaikeita pelkästään yksin opiskeltaviksi."
Mar6:13:09:082003,3,8,1,4,Aika ja mielenkiinto vaihtelevat suuresti.
Mar6:13:15:122003,2,5,3,4,"Halusin oppia asioita, mutta en pystynyt käymään aina luennoilla päällekkäisyyksien takia."
Mar6:13:55:182003,3,9,3,3,Kävin aina luento-osuudella(en osallistu ongelmien ratkomiseen). Luennot laajentavat sopivasti luentomonistetta.
Mar6:15:56:202003,2,5,7,5,"Noh, luentoja nyt ei varsinaisesti ollut - vain lopuksi pieni riipaisu vaikeimpiin asioihin. Kävin, koska ensin oli ongelmien ratkaisua ryhmissä. Ongelmien 'ryhmäkäsittely' auttoi kuitenkin vähän omaa työskentelyä. Ja vähäinenkin opetus on parempi kuin ei mitään."
Mar6:15:57:292003,7,5,1,3,"Luennoilla saa jotakin 'ylimääräistä' tietoa, jota itseopiskellessa ei välttämättä tule."
Mar6:15:57:362003,3,9,3,2,Käyn luennoilla aina kun mahd. (tiistaisin toiset luennot päällekkäin). Ongelmia on hyvä ratkoa ryhmän kanssa yhdessä. (suoritan kurssia siis ongelmalähtöisesti)
Mar18:10:19:112003,3,9,1,2,Sai vinkkejä ongelmia varten.
