,,,,Course=Introductory security
,,,,Question=2. Best features
,,,,Answers=32
,,,,K-means/Spectral clusters=6
,,,,Affinity clusters=7
,,,,Stemming=yes

id,k-means,affp,spectral,text
1,3,5,3,Lab sessions: the first half of the module has little to no examples of how techniques are used on a device. The hands on experience was much better.
2,1,1,1,Good slides and lecture material. Coincided well with textbook and wider reading. Relates well to modern information.
3,4,1,5,Lectures were very well presented and were well explained. Labs – worksheets were challenging.
4,2,4,6,Playing with a virtual machine is fun and gives an idea of managing systems correctly.
6,4,1,5,Well presented by the lecturer.
7,4,1,5,Well presented.
8,1,1,1,Lecturer has little information on the lecture slides and dictates the rest.
9,5,2,1,Good organisation of lectures. Good help in labs. Learned about encryption.
11,4,1,5,Enjoyed the group presentation coursework – interesting topics. Lectures generally well presented.
12,5,5,3,Labs provide practical application of security analysis.
13,4,2,1,The cryptography and key encryption was very well explained and the examples in slides helped cement the procedure.
15,5,3,3,"Labs in term 2 are interesting and much more practical than most, content of themodule is relevant and the lectures are reasonably interactive."
16,4,2,3,"The seminar tutors were really supportive and helpful, they were really good. The content was very clear and understandable. The best features was the variety of assessment, like, worksheets in term 1, presentation, practical sessions, etc. This module is actually my best."
17,5,3,4,Labs in term 2 are pretty fun.
18,3,5,3,"Hands on lab sessions, fun, practical experience, aids learning."
19,5,3,4,Informative labs in term 2.
20,6,1,1,Security presentation – gives us the opportunity to research on a topic of our choice.
21,5,5,3,System hardening in lab sessions.
22,5,5,3,"Practical applications of learned knowledge in the lab. Actual content, very interesting."
23,5,3,4,Labs.
24,3,4,3,Practical sessions.
25,2,4,6,Practical sessions – virtual machines.
26,3,5,2,Lab sessions = hands on. Real life application.
27,3,5,2,Application to real life examples.
28,5,3,4,The email signatures lab. The guest speaker at the end of term 1.
31,6,6,1,The cryptography related topics were interesting. The guest lecture / talk from the security company was interesting. The labs were useful to see the theory in real use.
34,6,7,1,Learning about common security flaws and how to solve them.
35,6,7,1,Searching for security flaws in a VM.
36,6,7,1,Finding vulnerabilities in the Linux VM – feels very real and interesting.
37,2,4,6,RSA / public key algorithms. Playing around in a virtual machine was fun.
38,6,6,1,Written assignments and feedback useful.
42,1,2,1,"Covered basics quite well, e.g. what makes a strong password. Went over encryption in good detail."
