,,,,,Course=Data structures and algorithms
,,,,,Question=1. Difficult topics
,,,,,Answers=25
,,,,,K-means/Spectral clusters=5
,,,,,Affinity clusters=7
,,,,,Stemming=yes
,,,,,
id,k-means,affp,spectral,mike,text
4,2,1,3,2,Coursework! → difficult to begin with only lecture and lab knowledge.
5,3,2,1,4,"Recursion – it's hard to think through it, not much time spent on it. Graph and tree iterations."
7,4,4,2,1,Hash tables. Binary trees.
8,3,3,5,1,"Some data structures like hashmaps, graphs, how the data structures are stored."
9,4,4,2,1,"Hash tables, because I didn't understand it in the lecture. The labs were quite hard compared to other modules."
10,3,3,1,5,Most of it. Because I have never studies Java. People already done it could easily do it.
12,3,5,1,,ADT.
13,1,1,1,,Learning in lectures sounded more simple than implementation.
16,1,3,5,,"Not really very difficult, a lot of the data structures and algorithms could be seen by viewing the pseudocode."
17,2,5,3,2,Getting coursework working / debugging.
19,2,5,3,2,Starting coursework with minimal explanation made it hard to know where to begin.
20,1,6,1,,"Orders of complexity, big O notation and how to conclude the efficiency of an algorithm, I thought it wasn't covered enough, but mostly I felt that there was a lack of supplementary material about it."
21,4,4,2,1,Hash tables.
23,4,4,5,1,Hash tables were made up of many concepts and data structures making them seem more complex.
24,2,2,1,,Purpose of interfaces.
27,2,1,3,2,The coursework! - very mich “on your own” and a difficult assignment overall.
28,5,7,1,5,"Every topic, because my programming foundations were not strong."
30,2,5,3,2,"Coursework, don't know how to start."
31,3,2,1,4,Recursion optimisation – not obvious straight away as to how the solution can be reached.
32,1,6,4,3,Sorting algorithms – the more difficult ones (quicksort) are challenging to code.
33,1,6,1,,Analysing algorithm run-time / complexity / performance.
35,1,6,4,3,Selection and insertion sort difference.
36,1,6,4,3,Sorting algorithms.
37,5,7,1,,All topics were of similar difficulty.
38,4,4,2,1,"Hash tables – coding them, the concept."
