Student,1. Difficult topics,2. Best features,3&4. Improvements and comments
1,,lab sessions first half module little examples techniques used device hands experience much better,seminars term 1 seemed utterly pointless think reason purpose clear felt like progress made didnt think aims presentation topics well defined website seemed part little vague
2,key encryption virtual machines lab worksheet 3 – security system flaws lot guidance look examples isnt problem many people issue,good slides lecture material coincided well textbook wider reading relates well modern information,labs need merge better lectures help guidance lab tutor
3,virtual machines quite hard understand concept,lectures well presented well explained labs – worksheets challenging,
4,linux acl commands permissions hard differentiate normal permissions,playing virtual machine fun gives idea managing systems correctly,slightly longer deadlines would nice occasionally resources put website several days lectures
5,worksheet 3 found hard get start finding vulnerabilities,,
6,password encryption encrypting general needs detail finding security flaws virtual machine … hard hard,well presented lecturer,better handouts cover information lectures either information slides 9ams hard virtual machine assignment others good
7,cryptography virtual machine,well presented,handouts notes
8,cryptography,lecturer little information lecture slides dictates rest,handouts revise
9,finding security flaws virtual machine,good organisation lectures good help labs learned encryption,enough information slides get handouts
10,,,labs – help sessions experience prior university assignment case studies examples applicable
11,acls – lot remember,enjoyed group presentation coursework – interesting topics lectures generally well presented,guidance lab material – felt lab 3 unclear didnt really know best approach exercises online material
12,encryption algorithms lot technical terminology authentication parties lot technical terminology,labs provide practical application security analysis,
13,finding security flaws vms difficult enough information exactly security flaw may information xss web related flaws ones linux filesystems,cryptography key encryption well explained examples slides helped cement procedure,giving help regards linux filesystem may exploited look etc
14,types encryption complicated ish maths wasnt clearly explained complex part course,,finding flaws vm etc wasnt well explained go look files case repetitive
15,,labs term 2 interesting much practical content themodule relevant lectures reasonably interactive,term 1 labs could bit 15 minute revisions
16,found quite difficult looking flaws system worksheet 3 labs,seminar tutors really supportive helpful really good content clear understandable best features variety assessment like worksheets term 1 presentation practical sessions etc module actually best,maybe guest speakers already work security positions maybe speakers phd students security route type careers everything well structured really good good mix elements
17,public key infrastructure maths,labs term 2 pretty fun,lectures 9am
18,virtual machines public private key maths,hands lab sessions fun practical experience aids learning,virtual machines starting lower level 9am tutors
19,identifying flaws existing systems,informative labs term 2,vet pg tutors communication skills workload lab lab highly varied
20,looking security exploit much help given hard find starting points,security presentation – gives us opportunity research topic choice,help could provided lab sessions involved looking security exploits
21,presentation,system hardening lab sessions,
22,nothing overly difficult challenging places,practical applications learned knowledge lab actual content interesting,specific module id like security module isnt limited postgrads great module
23,,labs,practical security ie pen testing practice concepts like authentication
24,,practical sessions,
25,encryption – remembering steps processes,practical sessions – virtual machines,
26,generally found tupe material term one abstract term 2 foreign,lab sessions hands real life application,
27,public key cryptography congruency – needed examples,application real life examples,examples
28,encryption assignment 3,email signatures lab guest speaker end term 1,teaching go spotting security flaws system 1 slide wasnt really sufficient
29,encryption user access,,
30,encryption,,
31,finding security flaws linux system challenging,cryptography related topics interesting guest lecture talk security company interesting labs useful see theory real use,
32,fin security defects virtual machine,,make labs helpful give notes explain lectures better
33,searching security flaws vm,,guidance look checking security flaws
34,find defects system vm little prior knowledge security difficult key encryption,learning common security flaws solve,spend time highlighting common security flaws systems examples key encryption
35,public key algorithms,searching security flaws vm,
36,finding vulnerabilities linux vm – first difficult know look,finding vulnerabilities linux vm – feels real interesting,
37,acls – didnt feet covered enough lecture – maybe,rsa public key algorithms playing around virtual machine fun,lab assessment seemed quite vague – wasnt sure right
38,using virtual machines lot help given knowing start,written assignments feedback useful,clearer instructions practical work second half module
39,virtual machines went topic quickly,,give assistance seminar worksheet 3 give lecture notes online slides
40,looking system find security flaws didnt really understand security flaw looks like look inside file see,,make lectures interesting clearer go solving issues security rather talking
41,,,assignments feel like need bit hint start working example vm assignment obvious start looking users
42,finding security faults werent told look,covered basics quite well eg makes strong password went encryption good detail,didnt feel covered anything really useful ie worksheet 3 us searching security flaws felt id stood much chance finding couple weeks first term worksheet 3 needs work hadnt learned anything applicable
