Student,1. Difficult topics,2. Best features,3&4. Improvements and comments
1,"1st term stuff, poorly taught.",Understanding some of Linux. Presentations.,Improve how the first term stuff is taught. 
2,,"Term 1 lab sessions, fun practical work.","Make sure that labs do not surpass lectures, lecturer ended up teaching what I had already taught myself 1 week earlier in labs for Unix. "
3,Fact sheet: wasn't entirely sure what the end result has meant to be. Presentations.,"Opportunity to present to a group. Useful skills: referencing, presentations, etc. Final essay allowed some freedom with choice of topic.",Ensure all seminar groups are given coursework at the same time. More opportunity to go over coursework. Coursework organisation was poor – often given coursework weeks after other groups and was not made aware of final essay until receiving an email just before the end of term.
4,Presentations – keeping everything organised / flowing.,Lots of choice for essay / presentation / etc. topics – meant I could pick something that interested me.,More consistent marking and handout of work between different groups – some groups got work set earlier. 
5,"Long-form essay writing, marks were harder to attain.",End of term 1 scripting task was interesting and a good test of skill.,More transparent marking for writing component. Very small variance in marks for writing segment of module.
6,"Bash scripting was, at the time, daunting, but I got a decent grade so perhaps it wasn't as tricky as I thought!",Ethics lectures were interesting. Enjoyed the practical elements in term 1. Presentations were enjoyable also.,"More support re. Bash scripting, resources were sparse. Make term 1 lectures more engaging – as the content is very dry. "
7,Bash scripting – never done any bash before – was all new. Writing – no strong background of writing.,"Learning to use Linux commands – use regularly, overlap with other modules like security.","More help with the bash scripting coursework. Assignments were given out to seminar groups at very different times, perhaps could be set basics in lecture at same time and then given more detail in seminars – fairer."
8,Laws?,Interactive seminar sessions. Fun., 
9,Operating systems – not used to Linux. Referencing – new. Ethics and behaviour and law – quite dull.,Operating systems – interesting to learn. Poster construction – fun to design., 
10,Learning Bash scripting and dealing with the Linux OS because I have never done it before.,Once understanding bash scripting this was a “fun” challenge.,More guidance with using the terminal. 
11,"Term 1 – bash scripting, not much done of this before, little guidance from lab sheets, more explanatory lab sheets would be useful.","Seminars helpful, good discussion and feedback of written work.","More help and guidance in term 1, introductory. Maybe revision classes for the class test. "
12,"Critique writing, aims weren't clear.",Bash scripting.,Not have the final essay set over Easter when everyone is at home as it's harder to use the library. 
13,"Bash, essays.",No exam.,Less essays. 
14,"Essay writing, not done much of it before. Regular expressions, not enough time on it.",Learning about Linux. Improving presenting skills.,Coherence in T2 slides. 
15,Essays. I don't like essays.,, 
16,Bash scripting.,, 
17,Bash script was a bit hard. Latex was very useful.,, 
18,The whole of first term. Not a lot of help. No prereq knowledge.,The presentation – helpful.,Less work! Too many assignments. Essay shouldn't be done so close to exams. Make it a 2nd year module so it counts towards grade.
19,,"Finance theme, very interesting and useful.",More lab sessions. Less coursework. 
20,Bash scripting.,,Changing it. 
21,Programming assignment: differences and structure of department Linux systems and the ones I created the bash script on; broke coding.,"Programming assignment, insightful as to how commands applied – helped memorization of commands and purpose.","The marking requirements of the term 1 Linux guide were not sufficient, lacking detail. Timing of class test was poor, prioritise exam over test."
22,Bash shell scripting.,Online lab diaries.,"Make essays in term 1, e.g. fact sheet. "
23,"Bash scripting and essays, more help needed.",,"Essays at start of term 2, not all at end. "
24,"Lecture content, term 2 – not interactive, hard to remember / understand.",Seminar groups / discussions.,More information on term 2 lectures – worksheets? 
25,Shell scripting – the syntax was not covered well enough in lectures.,Eventually understanding shell scripting.. The lecturer's jokes. Fact sheet allowed me to make something on a topic I actively enjoy.,More clear instructions for scripting coursework. English / writing textbook would be handy. Lots of writing essays and being told how to write them rather than fine details / precision of the English language.
26,"Every single lecture topic in term 2, especially the legal and business stuff, which I felt had no relevance to the module whatsoever. Referencing was also a pain and I had trouble understanding its point. Linux too.",The essays were far more enjoyable than I thought. Topics were great. The oral presentations: same as above. The tutor was a phenomenal tutor all around.,"Do a better job of explaining the term 2 material. More help with adjusting to Linux. Change the referencing style! Harvard is a huge pain to use with LaTeX. The seminars were superb all round, especially in terms 2 and 3. Linux is not enjoyable at all."
27,"Scripting, as I had no experience and not extensive in lectures.",Feedback during term 2 was useful.,More scripting examples in lecture. 
28,Bash scripting exercise.,,More help with bash scripting. 
29,Term 2 stuff.,Coursework. Seminars.,Better content. More enthusiastic lecturers. 
30,Shell scripting.,"Learning Linux, being able to improve essay skill, becoming comfortable with the terminal.",More help on shell scripting. Less essays. 
31,Essays. Bash script.,Labs in term 1.,Teach more bash scripting. Less essays. 
32,Essay writing because I haven't done it since GCSE.,The bash script exercise because I learnt a lot!,"Less essays, more presentations. "
33,Bash scripting. Essay.,,Less coursework. 
34,Essay  writing – prescriptive marking and topic choice removes fun and creativity.,,Open-ended topic choice for essays. The ideas behind the module and motivations are good. The implementation is bad – concentrate on more applicable skills – e.g. persuasion tactics.
35,Bash script exercise.,90% is coursework.,More bash script lectures to help with the coursework. 
36,"Bash scripting – harder to find resources, complicated code.",Unix. Bash scripting. Linux. Although writing skills are helpful this module introduced me to Linux for the first time.,No assignments in term 3 other than the essay. 
37,"Critique. Things were not difficult, but annoying because we were not told specifically what was required. The lack of information in the notes was the biggest problem.","Linux scripting, HTML, Latex.",Better structure the lecture notes in order to be able to learn from them. Listening to the lecturer on a non-CS related topic is painful enough. The seminars locked in consistence and more information could be supplied before the assignment. Close to none beneficial information about critique was provided. The seminars were more fun than useful. 
38,The law related segments were difficult due to lots of content which wasn't “used” or applied in any way.,There was programming for some.,More activity with government related knowledge. 
39,The fact sheet was difficult to engage with. Bash scripting was confusing at first (lots needed for coursework that wasn't covered in depth).,The Writing Centre – that stuff was actually very useful.,"Initial lectures were slightly patronising (explaining “file” and “instill” etc.). Content often dull / context not always clear. Was initially sceptical of essay-writing, but was very useful."
40,Data structures.,Presentations. Persuasive essay. Fact sheets.,More extra help. 
41,Lectures for Bash scripting weren't good enough.,Tutor.,More bash. 
42,Bash script → not good enough teaching on it.,Class test was good. Tutor., 
43,,,"Fewer essays, more posters. "
44,Essays.,Presentation. Bash project.,Less writing. 
45,Writing.,Latex.,Less advanced scripting. 
46,Initial learning of Bash.,Enjoyed the English seminars. Good for wider learning., 
47,Term 2 lectures. Great deal of content for little credit.,Shell scripting → was interesting.,"No class test, % to material ratio not justified. Term 1 seemed useless apart from skills in labs. "
48,,,"Moving the class test away from essay, exams, presentation etc. to allow more revision time. "
49,Extended essay; unfamiliarity / disinterest with lecture material made logic hard to write about.,Being proficient with Linux; very helpful.,Clear statement of module aims (term 2) and given a better idea of what form the class test will take. 
50,"Shell script, because it is an awful language.",The persuasive piece was interesting to research.,The lectures were rather dull and poorly presented. A lot of the information on the class test seems rather irrelevant – it would be easy to lookup if I needed it and I am unlikely to remember it after the test. 
