Student,1. Difficult topics,2. Best features,3&4. Improvements and comments
1,,Lab sessions: the first half of the module has little to no examples of how techniques are used on a device. The hands on experience was much better.,"Some of the seminars in term 1 seemed utterly pointless: I think the reason to do this is that their purpose was not very clear, felt like no progress was made. I didn't think the aims of the presentation topics were well defined on the website: seemed in part a little too vague."
2,"Key encryption. Virtual machines. Lab worksheet 3 – security system flaws; not a lot of guidance on what to look for, no examples of what is / isn't a problem, many people with the same issue.",Good slides and lecture material. Coincided well with textbook and wider reading. Relates well to modern information.,Labs need to merge in better with lectures. More help and guidance from lab tutor. 
3,Virtual machines: it was quite hard to understand the concept of it.,Lectures were very well presented and were well explained. Labs – worksheets were challenging., 
4,Linux acl commands / permissions are hard to differentiate from normal permissions.,Playing with a virtual machine is fun and gives an idea of managing systems correctly.," Slightly longer deadlines would be nice, occasionally resources were put on website several days after lectures."
5,"Worksheet 3, found it hard to get a start on finding vulnerabilities.",, 
6,"Password encryption / encrypting in general, needs more detail? Finding security flaws in a virtual machine … it's hard (too hard).",Well presented by the lecturer.,"(Better) handouts which cover the information in lectures. Either that, or more information in slides. No 9AMs. Hard virtual machine assignment, but the others are good."
7,Cryptography. Virtual machine.,Well presented.,Handouts / notes. 
8,Cryptography.,Lecturer has little information on the lecture slides and dictates the rest.,Handouts to revise from. 
9,Finding security flaws in the virtual machine.,Good organisation of lectures. Good help in labs. Learned about encryption.,Not enough information on slides. Should get more handouts. 
10,,,"Labs – help sessions for those who had no experience prior to university. Assignment. More case studies examples, where applicable?"
11,ACLs – a lot to remember.,Enjoyed the group presentation coursework – interesting topics. Lectures generally well presented.,More guidance with lab material – I felt lab 3 was unclear and didn't really know how best to approach the exercises. More online material. 
12,Encryption algorithms had a lot of technical terminology. Authentication between parties had a lot of technical terminology.,Labs provide practical application of security analysis., 
13,"Finding security flaws in the Vms was difficult, there was not enough information about exactly a security flaw may be, there was information about XSS and other web related flaws but not ones about Linux filesystems.",The cryptography and key encryption was very well explained and the examples in slides helped cement the procedure.,"By giving more help in regards to how a Linux filesystem may be exploited, what to look for etc. "
14,"Types of encryption, was complicated (ish). Maths that wasn't very clearly explained. Most complex part of course.",," Finding flaws in VM etc. wasn't well explained what we were doing / how we go about it, other than just look at files, in which case it's repetitive."
15,,"Labs in term 2 are interesting and much more practical than most, content of themodule is relevant and the lectures are reasonably interactive.",Term 1 labs could have been a bit more than just 15 minute revisions. 
16,"What I found quite difficult was looking for the flaws in the system, of worksheet 3 in the labs.","The seminar tutors were really supportive and helpful, they were really good. The content was very clear and understandable. The best features was the variety of assessment, like, worksheets in term 1, presentation, practical sessions, etc. This module is actually my best.","Maybe having more guest speakers from those who already work in security positions. Or maybe speakers from PhD students in security, and their route and what type of careers out there. Everything was well structured and really good, because it has a good mix of elements."
17,Public key infrastructure because maths.,Labs in term 2 are pretty fun.,Not having lectures at 9am. 
18,Virtual machines. Public private key maths.,"Hands on lab sessions, fun, practical experience, aids learning.","More on virtual machines, starting at a lower level?! No 9am tutors. "
19,Identifying flaws in existing systems.,Informative labs in term 2.,Vet PG tutors for communication skills. Workload from lab to lab was highly varied.
20,Looking for security exploit; not that much help given; hard to find starting points.,Security presentation – gives us the opportunity to research on a topic of our choice.,More help could be provided for the lab sessions that involved looking for security exploits. 
21,Presentation.,System hardening in lab sessions., 
22,"Nothing has been overly difficult, just challenging in places.","Practical applications of learned knowledge in the lab. Actual content, very interesting.","Not specific to this module, but I'd like a further security module that isn't limited to post-grads. A great module!"
23,,Labs.,"More on practical security, i.e. how to do pen testing? More practice on concepts like authentication. "
24,,Practical sessions., 
25,Encryption – remembering all the steps of these processes.,Practical sessions – virtual machines., 
26,Generally found the TUPE of material in term one more abstract than term 2  / more foreign.,Lab sessions = hands on. Real life application., 
27,"Public key cryptography, congruency – needed more examples.",Application to real life examples.,More examples. 
28,The encryption in assignment 3.,The email signatures lab. The guest speaker at the end of term 1.,"More teaching as to how to go about spotting security flaws in a system, 1 slide on this wasn't really sufficient. "
29,Encryption. User access.,, 
30,Encryption.,, 
31,Finding the security flaws in the Linux system was challenging.,The cryptography related topics were interesting. The guest lecture / talk from the security company was interesting. The labs were useful to see the theory in real use., 
32,Fin the security defects of the virtual machine.,,Make labs more helpful. Give notes that explain the lectures better. 
33,Searching for security flaws in a VM.,,More guidance in what to look for when checking for security flaws. 
34,Having to find defects with the system on the VM with little prior knowledge to security was VERY difficult. Key encryption.,Learning about common security flaws and how to solve them.,Spend more time highlighting common security flaws with systems. More examples with key encryption. 
35,Public key algorithms.,Searching for security flaws in a VM., 
36,"Finding vulnerabilities in the Linux VM – after the first few, it's difficult to know where to look.",Finding vulnerabilities in the Linux VM – feels very real and interesting., 
37,ACLs – didn't feet we covered enough in lecture – maybe.,RSA / public key algorithms. Playing around in a virtual machine was fun.,Lab assessment seemed quite vague – wasn't sure what to do if doing it right. 
38,"Using virtual machines, not a lot of help given for knowing where to start.",Written assignments and feedback useful.,Clearer instructions for practical work in second half of module. 
39,"Virtual machines, went through topic very quickly.",,"Give more assistance with seminar worksheet 3. Give lecture notes online, not just slides. "
40,"Looking through the system to find security flaws, didn't really understand what a security flaw looks like or how to look inside a file to see what it does.",,Make lectures more interesting and clearer about how to go about solving issues with security rather than just talking about them. 
41,,," Some assignments feel like they need a bit of a hint to start working on them, for example the VM assignment it's not too obvious where to start looking (the users!)."
42,"Finding security faults, we weren't told what to look for.","Covered basics quite well, e.g. what makes a strong password. Went over encryption in good detail.","I didn't feel that we covered anything really useful. i.e. worksheet 3 has us searching for security flaws, but I felt that I'd have stood as much chance of finding some a couple of weeks into the first term. Worksheet 3 needs work, we hadn't learned anything applicable."
