(Konvergointivakio oli 0.001. Halutessasi muuta koodiin hitshaku.c:ssa.)
Ei etsita mitaan, pyoritetaan vain hitsia koko verkolla, kunnes konvergoi.
Konvergoi 43 kierroksen jalkeen
Luettu 43 rivia, 155 sanaa
[Vpaino=0.000] (rivi 11)
[Vpaino=0.000] (rivi 15)
[Vpaino=0.000] (rivi 30)
[Vpaino=0.000] (rivi 31)
[Vpaino=0.000] (rivi 33)
[Vpaino=0.000] (rivi 34)
[Vpaino=0.000] (rivi 40)
[Vpaino=0.000] (rivi 41)
[Vpaino=0.000] (rivi 42)
[Vpaino=0.000] (rivi 6)
[Vpaino=0.008] (rivi 8) "well(w=0.010) present"(w=0.034)
[Vpaino=0.009] (rivi 25) session"(w=0.010) "practic(w=0.040)
[Vpaino=0.010] (rivi 39) use"(w=0.047) "written(w=0.002) assign(w=0.002) feedback(w=0.002)
[Vpaino=0.015] (rivi 36) secur(w=0.069) flaw(w=0.006) "search(w=0.003) vm"(w=0.003)
[Vpaino=0.015] (rivi 38) virtual(w=0.016) machin(w=0.006) key(w=0.026) fun"(w=0.020) "rsa(w=0.003) public(w=0.003) algorithm(w=0.003) play(w=0.003) around(w=0.003)
[Vpaino=0.016] (rivi 35) secur(w=0.069) "learn(w=0.003) common(w=0.003) flaw(w=0.006) solv"(w=0.003)
[Vpaino=0.016] (rivi 5) "play(w=0.003) virtual(w=0.016) machin(w=0.006) fun(w=0.034) give(w=0.017) idea(w=0.003) manag(w=0.003) system(w=0.003) correct"(w=0.003)
[Vpaino=0.019] (rivi 28) real(w=0.072) life(w=0.023) "applic(w=0.004) exampl"(w=0.004)
[Vpaino=0.023] (rivi 37) interest"(w=0.032) real(w=0.072) "find(w=0.004) vulner(w=0.004) linux(w=0.004) vm(w=0.004) feel(w=0.004)
[Vpaino=0.028] (rivi 1) "2.(w=0.005) Best(w=0.142) features"(w=0.005)
[Vpaino=0.042] (rivi 24) lab(w=0.225)
[Vpaino=0.044] (rivi 7) present(w=0.220) "well(w=0.010) lectur"(w=0.008)
[Vpaino=0.047] (rivi 22) lab(w=0.225) "system(w=0.009) harden(w=0.009) session"(w=0.010)
[Vpaino=0.057] (rivi 26) session(w=0.240) virtual(w=0.016) "practic(w=0.040) machin"(w=0.011)
[Vpaino=0.073] (rivi 21) present(w=0.220) give(w=0.017) topic(w=0.091) "secur(w=0.014) us(w=0.014) opportun(w=0.014) research(w=0.014) choic"(w=0.014)
[Vpaino=0.075] (rivi 9) littl(w=0.056) slide(w=0.061) lectur(w=0.203) "lectur(w=0.044) inform(w=0.014) dictat(w=0.014) rest"(w=0.014)
[Vpaino=0.094] (rivi 20) lab(w=0.225) term(w=0.249) "inform(w=0.017) 2"(w=0.017)
[Vpaino=0.095] (rivi 18) "lab(w=0.152) term(w=0.249) 2(w=0.072) pretti(w=0.018) fun"(w=0.020)
[Vpaino=0.096] (rivi 43) well(w=0.126) good(w=0.189) encrypt(w=0.041) "cover(w=0.018) basic(w=0.018) quit(w=0.018) eg(w=0.018) make(w=0.018) strong(w=0.018) password(w=0.018) went(w=0.018) detail"(w=0.018)
[Vpaino=0.101] (rivi 13) "lab(w=0.152) provid(w=0.019) practic(w=0.241) applic(w=0.047) secur(w=0.069) analysi"(w=0.019)
[Vpaino=0.105] (rivi 27) "lab(w=0.152) session(w=0.240) hand(w=0.061) real(w=0.072) life(w=0.023) applic"(w=0.020)
[Vpaino=0.121] (rivi 29) lab(w=0.225) term(w=0.249) "email(w=0.022) signatur(w=0.022) guest(w=0.067) speaker(w=0.022) end(w=0.022) 1"(w=0.022)
[Vpaino=0.126] (rivi 3) "good(w=0.058) slide(w=0.061) lectur(w=0.203) materi(w=0.023) coincid(w=0.023) well(w=0.126) textbook(w=0.023) wider(w=0.023) read(w=0.023) relat(w=0.068) modern(w=0.023) inform"(w=0.023)
[Vpaino=0.127] (rivi 14) exampl(w=0.065) slide(w=0.061) well(w=0.126) explain(w=0.053) help(w=0.195) "cryptographi(w=0.068) key(w=0.026) encrypt(w=0.041) cement(w=0.023) procedur"(w=0.023)
[Vpaino=0.152] (rivi 23) lab(w=0.225) learn(w=0.063) applic(w=0.047) content(w=0.219) actual(w=0.165) "practic(w=0.040) knowledg(w=0.028) interest"(w=0.032)
[Vpaino=0.160] (rivi 4) well(w=0.126) "lectur(w=0.044) present(w=0.220) explain(w=0.053) lab(w=0.225) worksheet(w=0.167) challeng"(w=0.030)
[Vpaino=0.168] (rivi 19) session(w=0.240) experi(w=0.073) lab(w=0.225) fun(w=0.034) practic(w=0.241) "hand(w=0.031) aid(w=0.031) learn"(w=0.031)
[Vpaino=0.173] (rivi 12) lectur(w=0.203) well(w=0.126) present(w=0.220) present"(w=0.034) "enjoy(w=0.032) group(w=0.032) coursework(w=0.032) interest(w=0.131) topic(w=0.091) general(w=0.032)
[Vpaino=0.185] (rivi 10) "good(w=0.058) lectur(w=0.203) lab(w=0.225) organis(w=0.034) good(w=0.189) help(w=0.195) learn(w=0.063) encrypt"(w=0.034)
[Vpaino=0.226] (rivi 2) "lab(w=0.152) session(w=0.240) first(w=0.042) half(w=0.042) modul(w=0.179) littl(w=0.056) exampl(w=0.065) techniqu(w=0.042) use(w=0.087) devic(w=0.042) hand(w=0.061) experi(w=0.073) much(w=0.096) better"(w=0.042)
[Vpaino=0.243] (rivi 32) use(w=0.087) lectur(w=0.203) relat(w=0.068) lab(w=0.225) interest(w=0.131) topic(w=0.091) secur(w=0.069) "cryptographi(w=0.068) real(w=0.072) guest(w=0.067) talk(w=0.045) compani(w=0.045) see(w=0.045) theori(w=0.045) use"(w=0.047)
[Vpaino=0.293] (rivi 16) "lab(w=0.152) much(w=0.096) lectur(w=0.203) interest(w=0.131) practic(w=0.241) term(w=0.249) 2(w=0.072) content(w=0.219) themodul(w=0.054) relev(w=0.054) reason(w=0.054) interact"(w=0.054)
[Vpaino=0.738] (rivi 17) Best(w=0.142) session(w=0.240) modul(w=0.179) present(w=0.220) worksheet(w=0.167) good(w=0.189) help(w=0.195) practic(w=0.241) term(w=0.249) content(w=0.219) "seminar(w=0.137) tutor(w=0.137) realli(w=0.137) support(w=0.137) clear(w=0.137) understand(w=0.137) featur(w=0.137) varieti(w=0.137) assess(w=0.137) like(w=0.137) 1(w=0.137) etc(w=0.137) actual(w=0.165) best"(w=0.137)
