(Konvergointivakio oli 0.001. Halutessasi muuta koodiin hitshaku.c:ssa.)
Ei etsita mitaan, pyoritetaan vain hitsia koko verkolla, kunnes konvergoi.
Konvergoi 33 kierroksen jalkeen
Luettu 43 rivia, 275 sanaa
[Vpaino=0.000] (rivi 1) "1.(w=0.000) Miksi(w=0.000) kävit/et(w=0.000) käynyt(w=0.000) luennoilla?"(w=0.000)
[Vpaino=0.000] (rivi 16)
[Vpaino=0.000] (rivi 18)
[Vpaino=0.000] (rivi 24) "suoritusmuoto(w=0.000) paikallaolo"(w=0.000)
[Vpaino=0.000] (rivi 32)
[Vpaino=0.000] (rivi 33) "pakko(w=0.000) osata(w=0.000) jokin"(w=0.000)
[Vpaino=0.000] (rivi 37) "aika(w=0.000) mielenkiinto(w=0.000) vaihdella(w=0.000) suuresti"(w=0.000)
[Vpaino=0.001] (rivi 13) "aika(w=0.000) ei(w=0.007) sopia"(w=0.000)
[Vpaino=0.027] (rivi 30) ongelmalähtöinen(w=0.219) osallistuminen(w=0.010) "oppimishalu(w=0.003) opetus"(w=0.003)
[Vpaino=0.031] (rivi 2) "käydä(w=0.224) aikataulu(w=0.038) päällekkäisyys"(w=0.004)
[Vpaino=0.033] (rivi 43) ongelma(w=0.276) "saada(w=0.004) vinkki(w=0.004) varten"(w=0.004)
[Vpaino=0.034] (rivi 21) kurssi(w=0.179) takia(w=0.060) "ongelma(w=0.004) suorittaa(w=0.028) ongelmalähtöinen"(w=0.028)
[Vpaino=0.039] (rivi 35) asia(w=0.212) "luento(w=0.111) käyminen(w=0.005) tärkeä(w=0.005) ymmärtäminen(w=0.005) kanta"(w=0.005)
[Vpaino=0.040] (rivi 28) asia(w=0.212) "luento(w=0.111) oppia(w=0.020) helppo"(w=0.005)
[Vpaino=0.040] (rivi 41) "luento(w=0.111) saada(w=0.081) joka(w=0.072) jokin(w=0.028) välttää(w=0.038) ylimääräinen(w=0.005) tieto(w=0.005) itseopiskellessa(w=0.005) tulla"(w=0.005)
[Vpaino=0.056] (rivi 25) mikä(w=0.029) olla(w=0.184) käydä(w=0.174) mikään(w=0.062) "tietää(w=0.006) opiskella(w=0.006) selvittää(w=0.006) ymmärtää(w=0.006) yhtikäs(w=0.006) siis"(w=0.006)
[Vpaino=0.058] (rivi 14) "käydä(w=0.224) koska(w=0.251) selkeä(w=0.007) luento"(w=0.024)
[Vpaino=0.060] (rivi 17) luento(w=0.380) oikea(w=0.067) ei(w=0.007) "asia(w=0.015) selvitä(w=0.007) alkupuoli(w=0.007) muistuttaa(w=0.007) enemmän(w=0.023) leikkitunti"(w=0.007)
[Vpaino=0.063] (rivi 5) luento(w=0.380) "muu(w=0.007) meno(w=0.007) te(w=0.007) muu(w=0.007) tehtävä(w=0.007) syy(w=0.007) päätöksentekokyvynpuutostauti(w=0.007) eli(w=0.007) siis(w=0.042) osa(w=0.029) osallistuminen(w=0.010) 50(w=0.007) 69(w=0.007) prosentti(w=0.007) luokka"(w=0.007)
[Vpaino=0.066] (rivi 31) luento(w=0.380) oppimistapa(w=0.025) jotta(w=0.030) aika(w=0.063) "onglemalähtöisestä(w=0.008) johtua(w=0.008) pakko(w=0.008) tapusten(w=0.008) ratkaisu(w=0.041) onnistua"(w=0.008)
[Vpaino=0.072] (rivi 26) luento(w=0.380) oppiminen(w=0.160) "asia(w=0.015) onnistua(w=0.008) yleensä(w=0.017) kätevä(w=0.008) idea(w=0.008) oppimispäiväkirja(w=0.008) löytyä(w=0.008) kätevä"(w=0.008)
[Vpaino=0.079] (rivi 29) "luento(w=0.111) saada(w=0.081) hyvä(w=0.067) esimerkki(w=0.060) ne(w=0.136) tulla(w=0.031) jokin(w=0.028) juttu(w=0.065) ongelmanratkaisu(w=0.026) yleensä(w=0.017) jolloin(w=0.009) tajuta(w=0.009) helppo(w=0.009) lisä(w=0.009) saattaa(w=0.009) osviitta(w=0.009) ryhmäpohdinta"(w=0.009)
[Vpaino=0.091] (rivi 27) ongelmalähtöinen(w=0.219) siis(w=0.042) oppiminen(w=0.160) ongelma(w=0.276) pohtia(w=0.027) "koska(w=0.010) kokea(w=0.010) lähes(w=0.010) välttämätön(w=0.010) mahdollistaa(w=0.010) ryhmä"(w=0.010)
[Vpaino=0.112] (rivi 3) "käydä(w=0.224) luento(w=0.380) se(w=0.091) osallistua(w=0.028) ongelmalähtöinen(w=0.219) oppiminen"(w=0.029)
[Vpaino=0.117] (rivi 38) luento(w=0.380) Aina(w=0.144) asia(w=0.212) käydä(w=0.174) oppi(w=0.051) "haluta(w=0.013) pystyä(w=0.013) päällekkäisyys(w=0.013) takia"(w=0.013)
[Vpaino=0.127] (rivi 19) "käydä(w=0.224) luento(w=0.380) koska(w=0.251) oikea(w=0.067) haluta(w=0.048) jäädä(w=0.047) oppiakkin(w=0.015) jokin(w=0.028) vielä(w=0.015) pitkäkestoinen(w=0.015) muisti"(w=0.015)
[Vpaino=0.130] (rivi 39) "käydä(w=0.224) luento(w=0.380) osallistua(w=0.028) ongelma(w=0.276) Aina(w=0.144) luento-osuus(w=0.015) ratkominen(w=0.015) laajentaa(w=0.015) sopia(w=0.015) luentomoniste"(w=0.015)
[Vpaino=0.133] (rivi 11) luento(w=0.380) asia(w=0.212) "luento(w=0.111) käydä(w=0.174) mieli(w=0.071) oppia(w=0.020) tämä(w=0.071) kevät(w=0.071) ehtiä(w=0.015) aikataulullinen(w=0.015) syy"(w=0.015)
[Vpaino=0.133] (rivi 22) luento(w=0.380) ongelmalähtöinen(w=0.219) tee(w=0.033) kurssi(w=0.179) mukaan"(w=0.033) tapa(w=0.093) vaikea(w=0.139) oppi(w=0.051) "ilman(w=0.015) käymä(w=0.015)
[Vpaino=0.136] (rivi 12) "käydä(w=0.224) luento(w=0.380) ongelmalähtöinen(w=0.219) oppiminen"(w=0.029) koska(w=0.251) oikea(w=0.067) kerta(w=0.016)
[Vpaino=0.141] (rivi 36) aikataulu(w=0.038) koska(w=0.251) olla(w=0.184) antaa(w=0.035) myöten(w=0.035) asia(w=0.212) liian(w=0.035) vaikea(w=0.139) pelkästään(w=0.035) yksin(w=0.035) käydä(w=0.174) enemmän(w=0.023) "olla(w=0.016) opiskella"(w=0.016)
[Vpaino=0.148] (rivi 23) ongelma(w=0.276) Aina(w=0.144) asia(w=0.212) tuntua(w=0.047) "luento(w=0.111) esimerkki(w=0.060) ne(w=0.136) luento"(w=0.024) paras(w=0.106) ongelmanratkaisu(w=0.026) valaista(w=0.017) melko(w=0.017) hyvin(w=0.017) päästä(w=0.017) kiinni(w=0.017) pohtia(w=0.027) jo(w=0.017) porukassa(w=0.017)
[Vpaino=0.155] (rivi 4) "käydä(w=0.224) luento(w=0.380) ongelmalähtöinen(w=0.219) koska(w=0.251) tee(w=0.033) kurssi(w=0.179) oppimistapa(w=0.025) mukaan"(w=0.033)
[Vpaino=0.159] (rivi 7) "käydä(w=0.224) aikataulu(w=0.038) koska(w=0.251) olla(w=0.184) Aina(w=0.144) antaa(w=0.035) myöten(w=0.035) asia(w=0.212) liian(w=0.035) vaikea(w=0.139) pelkästään(w=0.035) yksin(w=0.035) opetella"(w=0.018)
[Vpaino=0.192] (rivi 15) luento(w=0.380) se(w=0.091) osa(w=0.029) ongelma(w=0.276) "luento(w=0.111) käydä(w=0.174) kirja(w=0.056) ne(w=0.136) tulla(w=0.031) takia(w=0.060) edes(w=0.022) opetus(w=0.055) suomi(w=0.022) taas(w=0.022) valtaosa(w=0.022) englanti(w=0.022) jonkinlainen(w=0.022) mahdollisuus(w=0.022) oppi(w=0.051) esitellä(w=0.022) käsite(w=0.022) suomi"(w=0.022)
[Vpaino=0.192] (rivi 6) luento(w=0.380) ongelmalähtöinen(w=0.219) "osallistuki(w=0.022) oppiminen(w=0.160) mikä(w=0.029) olla(w=0.184) tapa(w=0.093) pakollinen(w=0.052) jotta(w=0.030) ryhmä(w=0.176) ongelma(w=0.276) voida(w=0.022) pohjustaa"(w=0.022)
[Vpaino=0.208] (rivi 42) "käydä(w=0.224) luento(w=0.380) kurssi(w=0.179) siis(w=0.042) ryhmä(w=0.176) ongelma(w=0.276) Aina(w=0.144) kanssa(w=0.090) hyvä(w=0.067) ratkoa(w=0.056) suorittaa(w=0.028) ongelmalähtöinen"(w=0.028) mahd(w=0.024) tiistaisin(w=0.024) toinen(w=0.024) päällekkäin(w=0.024) yhdessä(w=0.024)
[Vpaino=0.260] (rivi 8) "käydä(w=0.224) luento(w=0.380) koska(w=0.251) kurssi(w=0.179) oppiminen(w=0.160) pakollinen(w=0.052) ryhmä(w=0.176) ongelma(w=0.276) pohtiminen(w=0.030) oikea(w=0.067) hauska(w=0.030) tuntua(w=0.047) vaan(w=0.030) tällainen(w=0.030) learning(w=0.030) by(w=0.030) doing(w=0.030) -menetelmä(w=0.030) ikä(w=0.030) leikkiä(w=0.030) varjo(w=0.030) opettaa(w=0.086) asia"(w=0.030)
[Vpaino=0.277] (rivi 10) "käydä(w=0.224) luento(w=0.380) ongelmalähtöinen(w=0.219) koska(w=0.251) kurssi(w=0.179) olla(w=0.184) ongelma(w=0.276) kanssa(w=0.090) ne(w=0.136) mukava(w=0.088) suoritin(w=0.032) hyödyllinen(w=0.032) ratkoa(w=0.056) ryhmäläinen(w=0.032) silloin(w=0.032) jäädä(w=0.047) paljo(w=0.088) homma(w=0.032) kota"(w=0.032)
[Vpaino=0.285] (rivi 40) luento(w=0.380) koska(w=0.251) ryhmä(w=0.176) ongelma(w=0.276) asia(w=0.212) vaikea(w=0.139) käydä(w=0.174) opetus(w=0.055) vähän(w=0.089) vain(w=0.089) paras(w=0.106) ratkaisu(w=0.041) auttaa(w=0.066) "noh(w=0.033) nyt(w=0.033) varsinainen(w=0.033) loppu(w=0.033) pieni(w=0.033) riipaisu(w=0.033) ensin(w=0.033) ryhmäkäsittely(w=0.033) kuitenkaan(w=0.033) omata(w=0.033) työskentely(w=0.033) vähäinen(w=0.033) mikään"(w=0.033)
[Vpaino=0.291] (rivi 34) "käydä(w=0.224) luento(w=0.380) koska(w=0.251) olla(w=0.184) ryhmä(w=0.176) ongelma(w=0.276) asia(w=0.212) käydä(w=0.174) saada(w=0.081) myös(w=0.067) joka(w=0.072) takia(w=0.060) miettiminen(w=0.034) auttaa(w=0.066) nähdä(w=0.034) eri(w=0.034) kanta(w=0.034) tuli(w=0.034) selitys(w=0.034) muuten(w=0.034) välttää(w=0.038) älytä"(w=0.034)
[Vpaino=0.293] (rivi 9) luento(w=0.380) ongelmalähtöinen(w=0.219) koska(w=0.251) oppiminen(w=0.160) ryhmä(w=0.176) ongelma(w=0.276) "luento(w=0.111) käydä(w=0.174) osallistuki(w=0.090) haluta(w=0.048) läpi(w=0.034) kunto(w=0.034) kanssa(w=0.090) saada(w=0.081) myös(w=0.067) hyvä(w=0.067) esimerkki(w=0.060) joka(w=0.072) kirja(w=0.056) netti(w=0.034) luentomoniste(w=0.034) löytyä"(w=0.034)
[Vpaino=0.485] (rivi 20) se(w=0.091) ongelmalähtöinen(w=0.219) kurssi(w=0.179) oppiminen(w=0.160) olla(w=0.184) tapa(w=0.093) Aina(w=0.144) asia(w=0.212) vaikea(w=0.139) opettaa(w=0.086) osallistuki(w=0.090) ne(w=0.136) mukava(w=0.088) paljo(w=0.088) mieli(w=0.071) tämä(w=0.071) kevät(w=0.071) "erilainen(w=0.056) luennointitapa(w=0.056) kiinnostaa(w=0.056) aika(w=0.063) vaatia(w=0.056) alku(w=0.056) tosi(w=0.056) tottua(w=0.056) varsi(w=0.056) ottaa(w=0.056) ettei(w=0.056) mikään(w=0.062) meinata(w=0.056) riittää(w=0.056) kaikki(w=0.056) minä(w=0.056) opetustapa(w=0.056) vaihtelu(w=0.056) huono(w=0.056) juttu(w=0.065) lannistaa(w=0.056) vähän(w=0.089) vain(w=0.089) juuri(w=0.056) aihe(w=0.056) vaikeus(w=0.056) erilainen(w=0.056) usko(w=0.056) tehota(w=0.056) paras(w=0.106) joutua(w=0.056) miettiä(w=0.056) yrittää(w=0.056) toteuttaa(w=0.056) käytäntö"(w=0.056)
