,,,,,,"Course=Communication skills, IT skills, law and ethics"
,,,,,,"Question=1. Difficult topics"
,,,,,,Answers=46
,,,,,,"K-means/Spectral clusters=6"
,,,,,,"Affinity clusters=7"
,,,,,,Stemming=yes
,,,,,,
id,k-means,affp,spectral,mike,hits-rank,text
1,1,4,6,,42,"1st term stuff, poorly taught."
3,1,1,6,,23,"Fact sheet: wasn't entirely sure what the end result has meant to be. Presentations."
4,1,1,6,,,"Presentations – keeping everything organised / flowing."
5,1,7,5,2,28,"Long-form essay writing, marks were harder to attain."
6,4,3,6,1,4,"Bash scripting was, at the time, daunting, but I got a decent grade so perhaps it wasn't as tricky as I thought!"
7,1,7,5,1,1,"Bash scripting – never done any bash before – was all new. Writing – no strong background of writing."
8,1,2,6,,43,Laws?
9,2,2,6,,26,"Operating systems – not used to Linux. Referencing – new. Ethics and behaviour and law – quite dull."
10,5,3,6,1,7,"Learning Bash scripting and dealing with the Linux OS because I have never done it before."
11,2,3,6,1,3,"Term 1 – bash scripting, not much done of this before, little guidance from lab sheets, more explanatory lab sheets would be useful."
12,1,7,5,,33,"Critique writing, aims weren't clear."
13,3,6,2,1,21,"Bash, essays."
14,1,7,5,2,20,"Essay writing, not done much of it before. Regular expressions, not enough time on it."
15,3,6,2,2,38,"Essays. I don't like essays."
16,4,3,1,1,19,"Bash scripting."
17,2,3,6,1,8,"Bash script was a bit hard. Latex was very useful."
18,1,4,6,,30,"The whole of first term. Not a lot of help. No prereq knowledge."
20,4,3,1,,18,"Bash scripting."
21,5,3,6,,5,"Programming assignment: differences and structure of department Linux systems and the ones I created the bash script on; broke coding."
22,6,5,3,1,17,"Bash shell scripting."
23,3,6,6,1,10,"Bash scripting and essays, more help needed."
24,2,4,6,,32,"Lecture content, term 2 – not interactive, hard to remember / understand."
25,6,5,6,1,15,"Shell scripting – the syntax was not covered well enough in lectures."
26,5,4,6,,34,"Every single lecture topic in term 2, especially the legal and business stuff, which I felt had no relevance to the module whatsoever. Referencing was also a pain and I had trouble understanding its point. Linux too."
27,6,3,6,1,41,"Scripting, as I had no experience and not extensive in lectures."
28,4,3,4,1,13,"Bash scripting exercise."
29,1,4,6,,39,"Term 2 stuff."
30,6,5,3,1,36,"Shell scripting."
31,3,6,2,1,22,"Essays. Bash script."
32,1,7,5,2,25,"Essay writing because I haven't done it since GCSE."
33,3,6,2,1,14,"Bash scripting. Essay."
34,1,7,5,2,31,"Essay  writing – prescriptive marking and topic choice removes fun and creativity."
35,4,3,4,1,12,"Bash script exercise."
36,4,3,6,1,6,"Bash scripting – harder to find resources, complicated code."
37,1,2,6,,35,"Critique. Things were not difficult, but annoying because we were not told specifically what was required. The lack of information in the notes was the biggest problem."
38,1,2,6,,24,"The law related segments were difficult due to lots of content which wasn't “used” or applied in any way."
39,6,1,6,1,2,"The fact sheet was difficult to engage with. Bash scripting was confusing at first (lots needed for coursework that wasn't covered in depth)."
40,1,7,6,,,"Data structures."
41,6,3,1,1,11,"Lectures for Bash scripting weren't good enough."
42,6,3,1,1,9,"Bash script → not good enough teaching on it."
44,3,6,2,2,40,Essays.
45,1,7,5,,37,Writing.
46,5,3,6,1,,"Initial learning of Bash."
47,5,4,6,,27,"Term 2 lectures. Great deal of content for little credit."
49,1,7,5,,29,"Extended essay; unfamiliarity / disinterest with lecture material made logic hard to write about."
50,6,5,3,1,16,"Shell script, because it is an awful language."
